simulation_id	longitude	latitude	inclination	distance	mass1	mass2	spin1z	spin2z
sim_inspiral:simulation_id:0	3.1848184	0.2535655	2.55568	94.693389	1.3560535	1.3875231	0.041461548	-0.032791141
sim_inspiral:simulation_id:1	0.24642331	1.1155494	2.639171	163.49997	1.4208835	1.568477	-0.033155722	-0.033731652
sim_inspiral:simulation_id:2	2.0214813	1.1230188	0.77537157	84.627929	1.4000257	1.3862919	-0.028164223	-0.039274974
sim_inspiral:simulation_id:3	1.9047163	0.91608674	1.8731018	98.900426	1.1505904	1.4753842	-0.034780677	-0.042678643
sim_inspiral:simulation_id:4	4.4201987	-1.4712539	1.8800589	77.218859	1.3672816	1.4715653	0.014034025	-0.0037765871
sim_inspiral:simulation_id:5	5.7590374	-0.79949513	0.83886443	95.93306	1.3394375	1.3471153	-0.030843172	-0.04537949
sim_inspiral:simulation_id:6	3.6700846	-0.10859346	0.70365872	134.21167	1.2899767	1.5324093	0.025482387	-0.041788719
sim_inspiral:simulation_id:7	1.9718558	0.66062356	2.5666835	260.50704	1.6138015	1.417735	-0.022637787	0.049406648
sim_inspiral:simulation_id:8	0.30049066	0.59173228	1.4184156	22.757757	1.2307355	1.3447646	0.049210133	0.029455147
sim_inspiral:simulation_id:9	2.3413379	0.21934064	0.57181624	87.677043	1.2494302	1.5012031	-0.0079146357	0.022732913
sim_inspiral:simulation_id:10	1.4140368	-0.94395561	0.54317875	91.898121	1.2674243	1.4533238	-4.5194867e-05	-0.049488416
sim_inspiral:simulation_id:11	1.0987951	-1.2429765	0.25384213	175.38004	1.4898635	1.2992681	0.04012858	-0.031276296
sim_inspiral:simulation_id:12	1.0212036	-0.80378372	1.0172456	37.38909	1.3955375	1.3366306	0.042549175	-0.0122027
sim_inspiral:simulation_id:13	0.16210266	0.51188647	0.34529529	113.8167	1.5159282	1.4278366	0.0089611027	-0.045341328
sim_inspiral:simulation_id:14	5.9093049	-0.13212049	0.96440568	83.610664	1.3377764	1.4896508	-0.02714619	-0.0487951
sim_inspiral:simulation_id:15	5.640149	0.32916019	0.59847795	127.89114	1.4368218	1.3100405	0.0083143083	-0.014193092
sim_inspiral:simulation_id:16	1.5406923	1.1583795	2.4856871	121.61519	1.4727681	1.3944401	-0.035834416	-0.035756629
sim_inspiral:simulation_id:17	0.76647421	-0.52321115	1.087603	59.122219	1.349622	1.3511958	-0.030826183	0.018948444
sim_inspiral:simulation_id:18	1.2210345	0.50041099	2.5337739	98.414307	1.3090032	1.3194547	0.0024885421	-0.014940241
sim_inspiral:simulation_id:19	4.2826539	-0.75867392	0.86669003	133.11818	1.3751692	1.473219	-0.024316861	-0.0066546576
sim_inspiral:simulation_id:20	1.1678769	-1.0818212	0.56583319	38.21713	1.3329731	1.2249109	-0.013179348	-0.033494042
sim_inspiral:simulation_id:21	3.9782765	-1.3941498	1.028435	28.923255	1.3946768	1.2020319	-0.048794921	-0.032115545
sim_inspiral:simulation_id:22	4.3444663	-0.55289513	0.51422017	104.14616	1.363361	1.3666205	-0.0054814237	0.00045226102
sim_inspiral:simulation_id:23	3.7626577	0.26385139	0.12777023	124.8492	1.4580257	1.271375	-0.01035819	0.024275513
sim_inspiral:simulation_id:24	3.6377704	0.78241309	0.84008324	154.28798	1.459961	1.3536338	0.025015984	0.035082411
sim_inspiral:simulation_id:25	0.26505728	0.002256365	2.1274201	59.777314	1.3903558	1.441176	-0.018346503	0.01808154
sim_inspiral:simulation_id:26	4.675873	-0.47907768	0.26922175	91.858722	1.3859828	1.3817665	0.028563989	0.028657182
sim_inspiral:simulation_id:27	3.4744223	-0.81069107	0.56529155	99.617957	1.1643323	1.4154123	-0.014810392	-0.048974099
sim_inspiral:simulation_id:28	0.17499087	-0.92740302	0.85340059	24.51053	1.2305374	1.3639241	-0.022200559	-0.044040133
sim_inspiral:simulation_id:29	2.0919278	0.84843958	2.8456987	151.37278	1.4245304	1.4751432	0.017318077	-0.0081075404
sim_inspiral:simulation_id:30	1.1392428	0.13508756	0.92065454	82.60985	1.3952123	1.4628944	0.018514886	-0.0014018714
sim_inspiral:simulation_id:31	1.1410471	-0.96615934	2.3197323	137.075	1.4945541	1.4581611	0.047983305	0.0017676183
sim_inspiral:simulation_id:32	3.2010238	0.49566668	2.5183777	145.07274	1.4174965	1.2177094	-0.0053945104	0.044578189
sim_inspiral:simulation_id:33	5.2198008	-0.42544715	1.2008078	124.065	1.4683498	1.4419187	-0.024529013	0.011444614
sim_inspiral:simulation_id:34	6.1257539	-1.0909387	2.6625428	128.5472	1.3122428	1.2975604	0.032702318	0.021647152
sim_inspiral:simulation_id:35	5.9103843	0.42517768	0.55868389	76.036977	1.3765359	1.2876783	0.013042883	0.046719444
sim_inspiral:simulation_id:36	3.0182885	-0.24574282	2.3825114	47.988963	1.4351276	1.3288821	-0.0068806918	0.048076547
sim_inspiral:simulation_id:37	5.7354893	-0.56479499	2.4330383	89.271229	1.415052	1.4897162	0.0006947428	-0.032020264
sim_inspiral:simulation_id:38	1.468183	0.48989915	2.9892847	256.01828	1.4014128	1.4373866	0.033914688	-0.0021649675
sim_inspiral:simulation_id:39	5.599122	0.54952884	0.25789375	36.20194	1.2640376	1.2074575	-0.0051535418	-0.046306686
sim_inspiral:simulation_id:40	2.8184755	0.66064464	0.30938008	120.63562	1.2777995	1.4026732	-0.045052885	-0.008331898
sim_inspiral:simulation_id:41	2.5904536	0.38509254	0.61198833	54.816505	1.3978206	1.2245694	0.016950684	0.013898749
sim_inspiral:simulation_id:42	0.50444144	-0.74901417	0.12784028	164.32694	1.3189389	1.5013518	-0.02229164	0.027726523
sim_inspiral:simulation_id:43	0.9495589	0.58667912	2.3748416	144.95773	1.4127065	1.4045487	-0.026206073	-0.027841165
sim_inspiral:simulation_id:44	1.172779	0.08471042	0.73052774	112.83634	1.2919502	1.2780014	0.0091123213	0.026558354
sim_inspiral:simulation_id:45	5.6582353	-0.54547902	0.49963822	97.999552	1.414072	1.3366278	-0.011831332	0.017867416
sim_inspiral:simulation_id:46	5.3219159	0.74398069	2.755788	57.428742	1.2987987	1.4741883	0.041501952	-0.040837271
sim_inspiral:simulation_id:47	3.9482367	1.1601252	2.3896217	85.175608	1.3927748	1.2524665	0.040573963	0.033316775
sim_inspiral:simulation_id:48	2.5117428	0.65680519	0.54063563	25.113591	1.2629543	1.1875011	0.025747419	-0.017041752
sim_inspiral:simulation_id:49	4.696723	-0.45110902	2.2780406	188.63173	1.1804245	1.3061856	-0.036515204	0.040258762
sim_inspiral:simulation_id:50	5.686389	-0.34239046	0.40236833	72.907981	1.2977531	1.4186135	0.031011175	0.0030166514
sim_inspiral:simulation_id:51	1.6288969	-0.68517732	1.8323462	67.584007	1.3682192	1.3631664	-0.01237319	0.014438606
sim_inspiral:simulation_id:52	5.2830984	-1.1438014	2.2639841	135.16101	1.4856226	1.3426438	-0.008462847	-0.038841469
sim_inspiral:simulation_id:53	0.46195517	-1.1620456	2.5215446	27.407411	1.3404778	1.4465501	0.033876153	0.028859605
sim_inspiral:simulation_id:54	0.097848259	-0.011652242	0.41184492	148.02509	1.3483178	1.2786079	0.018847676	-0.032301004
sim_inspiral:simulation_id:55	3.6047697	0.81394966	2.7322857	182.40652	1.3278594	1.3802604	0.022976721	-0.047409535
sim_inspiral:simulation_id:56	0.94864968	1.0299569	0.78774188	75.233836	1.4008409	1.3144238	0.016060583	0.019437763
sim_inspiral:simulation_id:57	4.8408659	-0.047870244	2.6991416	106.25352	1.3868205	1.2825194	0.012497048	0.0089723211
sim_inspiral:simulation_id:58	4.7625712	-0.13333212	2.1894468	43.769129	1.3775381	1.3659075	-0.014977772	0.048494275
sim_inspiral:simulation_id:59	2.4730777	-0.31079592	0.57605093	173.96939	1.4039361	1.5162383	0.0032277259	0.044727224
sim_inspiral:simulation_id:60	4.107173	-0.48263229	0.70597772	73.68375	1.3280051	1.3240459	-0.0053132144	-0.014095883
sim_inspiral:simulation_id:61	2.3869655	1.4134307	0.79167511	93.394783	1.2575151	1.2419695	0.020499013	0.0038703326
sim_inspiral:simulation_id:62	2.8920137	0.82882612	2.9769127	172.92606	1.4877287	1.2573109	0.043935297	0.00017207501
sim_inspiral:simulation_id:63	0.26767972	0.31380291	0.068027226	166.16951	1.451192	1.4749699	0.034030753	0.027375174
sim_inspiral:simulation_id:64	4.273775	-0.66120215	1.0583536	76.972042	1.3334192	1.4090114	-0.023829725	-0.03680526
sim_inspiral:simulation_id:65	3.6845851	-0.075747312	0.83324953	126.57116	1.3988132	1.3570901	-0.0042029211	-0.03016798
sim_inspiral:simulation_id:66	4.8768572	0.44143239	0.10984595	157.41566	1.2407866	1.4134026	-0.035728277	-0.037979971
sim_inspiral:simulation_id:67	2.3897535	-0.91056517	2.6417417	112.27757	1.2370436	1.6185779	0.031379706	0.037535195
sim_inspiral:simulation_id:68	3.1479071	0.30399709	0.45547926	47.21897	1.4622971	1.2715109	-0.024108974	-0.036279223
sim_inspiral:simulation_id:69	1.038622	0.60993633	2.7014099	125.03855	1.3080876	1.3557761	-0.044938619	0.045920373
sim_inspiral:simulation_id:70	5.9030943	-0.42746736	2.8239133	171.39052	1.4494588	1.3846399	-0.0012398655	-0.023961628
sim_inspiral:simulation_id:71	0.79662946	-1.1517838	2.4076413	103.25543	1.3447899	1.4015702	-0.0023808877	0.041038281
sim_inspiral:simulation_id:72	6.1525178	0.46921318	2.3889379	64.033737	1.1957842	1.445362	-0.042026238	-0.0086932916
sim_inspiral:simulation_id:73	3.7210125	-0.12328966	0.33776283	144.84076	1.1607871	1.3677955	0.035358122	0.021323166
sim_inspiral:simulation_id:74	0.40315322	0.51120773	2.3174241	74.032917	1.3498407	1.3797929	0.02105877	-0.0066223296
sim_inspiral:simulation_id:75	1.8478205	-0.42283466	1.9449888	80.08782	1.4072706	1.2908325	-0.011865396	0.003146195
sim_inspiral:simulation_id:76	3.1479532	0.30456577	2.1142855	46.379754	1.2447201	1.3294575	-0.027062641	-0.0026891005
sim_inspiral:simulation_id:77	5.6145154	0.66978069	0.89775764	96.481853	1.3642302	1.5315835	-0.043517301	0.0083339745
sim_inspiral:simulation_id:78	1.9280977	0.19685824	0.44275316	101.95348	1.3752524	1.3082677	0.043136642	-0.041150762
sim_inspiral:simulation_id:79	2.3910288	1.104889	0.44072269	207.27567	1.4028385	1.5528114	-0.0088340087	-0.0021663797
sim_inspiral:simulation_id:80	5.6496162	0.80684783	1.1171822	91.053383	1.3513404	1.153008	-0.043342987	-0.039238071
sim_inspiral:simulation_id:81	2.276735	0.59265643	1.5108637	112.95679	1.4417317	1.3524444	-0.048973872	-0.019171303
sim_inspiral:simulation_id:82	0.06505226	-1.0506537	0.50926654	96.338165	1.4295337	1.1861096	0.020531395	-0.049567454
sim_inspiral:simulation_id:83	1.8689924	-0.3051209	2.4034821	109.52375	1.4073557	1.3549764	-0.005553389	0.03775172
sim_inspiral:simulation_id:84	1.2511498	0.29487992	2.8725004	137.6959	1.2760519	1.315503	0.018565712	-0.031134077
sim_inspiral:simulation_id:85	2.2107087	-0.2660947	2.9230306	146.03791	1.2532646	1.3320528	0.017876429	0.019493523
sim_inspiral:simulation_id:86	0.81816918	-0.18341399	0.071499689	124.18321	1.2637037	1.6075752	0.041199088	-0.019031753
sim_inspiral:simulation_id:87	4.3331341	1.2514469	0.83959984	19.846577	1.2475524	1.3966042	0.032345549	-0.0018779581
sim_inspiral:simulation_id:88	2.7903064	0.49323353	0.14889858	144.03308	1.1696595	1.5073845	0.026229055	0.032643114
sim_inspiral:simulation_id:89	3.6524261	0.34750738	0.53832285	93.044166	1.4018011	1.2742672	0.035989243	0.024827355
sim_inspiral:simulation_id:90	4.2005804	-0.87872062	0.41050123	187.9842	1.4942722	1.389315	0.045867213	-0.0097637827
sim_inspiral:simulation_id:91	3.0076715	0.17979769	1.3074694	90.108942	1.2840364	1.2858948	0.022273064	0.040095466
sim_inspiral:simulation_id:92	5.6829131	0.18539545	2.6634698	162.17193	1.4929605	1.2606124	0.034333275	0.031283033
sim_inspiral:simulation_id:93	0.34647996	-1.4366498	2.5101372	68.903659	1.2534006	1.4306934	0.0024090885	0.032766156
sim_inspiral:simulation_id:94	2.1479706	0.25971627	0.93634606	106.4156	1.4382677	1.2346611	0.016455239	0.013680347
sim_inspiral:simulation_id:95	1.4838094	0.098018855	0.35674519	83.541133	1.4312758	1.3473211	-0.034761727	-0.037365145
sim_inspiral:simulation_id:96	3.9678465	-0.56266173	2.8255902	27.446267	1.3571788	1.4167299	-0.034147225	-0.014292449
sim_inspiral:simulation_id:97	4.725132	0.34715061	2.5532581	71.605648	1.3177019	1.3372591	-0.019834056	-0.044783969
sim_inspiral:simulation_id:98	0.67394162	-0.8263165	2.0581772	103.26002	1.532519	1.3632791	0.03205352	-0.016077634
sim_inspiral:simulation_id:99	5.0540238	-1.2513093	2.2110649	59.652868	1.3797811	1.2895623	-0.036079154	-0.020546811
sim_inspiral:simulation_id:100	0.95674292	-0.96766435	2.9145403	181.75338	1.3220862	1.4947635	-0.02659493	-0.017721712
sim_inspiral:simulation_id:101	3.4614312	-0.24121215	2.9247966	82.208221	1.3129993	1.2083108	-0.039261872	-0.012460386
sim_inspiral:simulation_id:102	3.2659779	0.78902686	2.6946363	177.18481	1.4554894	1.4035937	-0.015181628	-0.0063689216
sim_inspiral:simulation_id:103	5.9111986	0.33312482	2.8734899	231.4412	1.4307393	1.4282814	0.034768192	0.037390147
sim_inspiral:simulation_id:104	3.5887204	0.91275154	2.6703868	100.83834	1.267674	1.3960705	0.014041306	0.029674605
sim_inspiral:simulation_id:105	0.64537854	0.72832171	0.20810321	187.90519	1.3858858	1.468121	-0.044838585	-0.024546954
sim_inspiral:simulation_id:106	5.9942716	1.0228495	1.8141402	71.087566	1.4523754	1.3809445	-0.043465537	-0.047774106
sim_inspiral:simulation_id:107	4.9208983	0.27828036	2.9195813	175.36145	1.3088475	1.5175492	0.01965627	0.014861237
sim_inspiral:simulation_id:108	5.8273094	0.25654281	0.83996554	90.402875	1.4012746	1.3328501	0.040393361	0.023898751
sim_inspiral:simulation_id:109	3.0145041	0.011235678	2.2252883	94.9273	1.368934	1.3431506	-0.049807841	0.027841849
sim_inspiral:simulation_id:110	1.4047233	0.020720662	1.6527914	117.9114	1.4998614	1.6257983	0.017631678	0.028842607
sim_inspiral:simulation_id:111	3.2406992	0.076568819	1.6500238	59.062468	1.397737	1.4417856	-0.0040900316	0.034396637
sim_inspiral:simulation_id:112	2.1031622	0.29297627	2.5738893	109.90233	1.375128	1.364973	0.048859176	-0.043942546
sim_inspiral:simulation_id:113	0.77229245	-0.33968256	2.9559192	179.34286	1.304927	1.4300021	-0.011075908	0.033204843
sim_inspiral:simulation_id:114	4.2526984	-0.37098798	2.693006	123.02151	1.4752688	1.4771227	-0.0047983895	0.0070374243
sim_inspiral:simulation_id:115	5.2078601	-0.50642208	0.48350573	85.530353	1.4135624	1.5283058	-0.016377369	-0.046572469
sim_inspiral:simulation_id:116	0.19804614	0.51365685	0.83906049	112.2416	1.4606704	1.3662392	0.021809087	0.036632461
sim_inspiral:simulation_id:117	5.2839971	0.021658607	2.7915429	79.418408	1.2820294	1.4026536	0.0035695583	0.028427808
sim_inspiral:simulation_id:118	1.8180254	0.099156139	2.1713051	40.588997	1.2883761	1.2666895	-0.0067626846	-0.0088226456
sim_inspiral:simulation_id:119	0.2608994	-0.94247178	2.4693418	203.87924	1.5192662	1.3770374	-0.047139258	0.003064921
sim_inspiral:simulation_id:120	1.3622542	-0.94731018	0.51069645	85.800357	1.4351499	1.5697735	0.044754804	0.010040116
sim_inspiral:simulation_id:121	3.0337885	-0.16623979	2.7468915	123.72208	1.4021837	1.3062747	-0.046324165	0.022946093
sim_inspiral:simulation_id:122	4.0385241	0.44170924	0.85271988	118.23438	1.2792204	1.2640646	-0.021949238	-0.049785844
sim_inspiral:simulation_id:123	4.5253145	0.16506012	2.7421268	111.70593	1.5250455	1.1271728	0.011851807	0.0045859089
sim_inspiral:simulation_id:124	4.0783474	-0.3959082	2.767752	60.362554	1.3410648	1.3598162	0.029249622	-0.035396732
sim_inspiral:simulation_id:125	0.92302231	1.035977	1.0859792	68.282873	1.2984748	1.4582137	-0.046353389	-0.044862872
sim_inspiral:simulation_id:126	2.8988538	0.26865637	1.1042929	78.002771	1.4310956	1.2878138	-0.030542651	-0.023106889
sim_inspiral:simulation_id:127	2.7181372	-0.92244537	0.25328477	174.68793	1.3856245	1.3588293	-0.011173165	-0.016130232
sim_inspiral:simulation_id:128	3.6401916	-0.077366471	1.9750245	66.806181	1.4151541	1.3476251	-0.028107291	-0.0084469892
sim_inspiral:simulation_id:129	3.4379855	-0.10032484	0.53335765	139.69344	1.5249914	1.2814599	0.0014627337	-0.042720742
sim_inspiral:simulation_id:130	0.6152136	1.0579442	2.5178654	147.87649	1.2448565	1.4004943	-0.017080448	-0.0057118461
sim_inspiral:simulation_id:131	5.8581872	0.18673579	0.57983102	111.45492	1.1620244	1.3586409	-0.019290405	-0.014957022
sim_inspiral:simulation_id:132	1.8084546	-0.15133762	1.6743226	70.252549	1.1415994	1.4703726	0.049516093	0.016314191
sim_inspiral:simulation_id:133	2.9991789	-0.10655215	3.0752503	50.906117	1.2767137	1.2458932	0.04389685	0.026450652
sim_inspiral:simulation_id:134	4.5680727	-0.86958761	0.34075558	165.99498	1.4105155	1.2978751	0.047803273	0.022898179
sim_inspiral:simulation_id:135	3.3539653	0.45557948	0.26741923	138.84127	1.4355768	1.5658435	0.048019137	0.029429118
sim_inspiral:simulation_id:136	6.033464	-1.5410861	0.50533143	55.358668	1.2415265	1.4130639	-0.006925897	-0.045630745
sim_inspiral:simulation_id:137	2.7649192	-0.13514014	2.6387914	32.162737	1.2825138	1.3864771	0.01349607	0.048079957
sim_inspiral:simulation_id:138	3.140229	0.1582803	0.90552608	70.241308	1.5113405	1.4130442	0.016128811	0.011778172
sim_inspiral:simulation_id:139	6.1283511	-0.37571282	0.47123319	152.99462	1.2068713	1.5183158	-0.011515125	-0.044712592
sim_inspiral:simulation_id:140	5.0469963	0.17319736	2.2563142	48.877774	1.4406018	1.3923533	-0.022239727	-0.017503152
sim_inspiral:simulation_id:141	2.7933891	-0.19848591	0.22193396	97.618451	1.3998471	1.3271286	-0.046573374	0.021001472
sim_inspiral:simulation_id:142	5.5193756	0.19395029	0.25741037	84.794134	1.3782337	1.2918015	-0.041903859	-0.031631865
sim_inspiral:simulation_id:143	0.86963195	0.87886403	2.6893095	231.21931	1.4665106	1.4116871	0.0022649065	0.020762154
sim_inspiral:simulation_id:144	5.9988056	0.6942394	0.75088117	118.74804	1.2313951	1.2886678	0.030697724	-0.013181763
sim_inspiral:simulation_id:145	0.73784417	0.73463866	2.5632979	211.03056	1.4068348	1.3349925	-0.022878284	0.039582323
sim_inspiral:simulation_id:146	5.2183375	0.18356963	1.9582228	52.370982	1.2666467	1.2991444	0.032117123	0.014243048
sim_inspiral:simulation_id:147	5.15749	-0.13369565	0.53741055	141.47157	1.4401373	1.435531	0.02532087	0.001683153
sim_inspiral:simulation_id:148	3.0722655	-1.2094914	2.9973224	145.65429	1.5051686	1.4474098	-0.03659277	-0.035231365
sim_inspiral:simulation_id:149	4.1069296	-1.1152186	2.7402067	90.94839	1.2578755	1.4476604	-0.013064775	-0.039279397
sim_inspiral:simulation_id:150	3.6753616	1.0091592	2.702821	92.182279	1.2232228	1.3180218	0.039906043	-0.0033264583
sim_inspiral:simulation_id:151	2.8661317	0.64901171	2.5845207	76.319474	1.5199975	1.4762611	-0.0038764329	0.021803363
sim_inspiral:simulation_id:152	1.2894447	-0.35685918	0.10567964	102.72235	1.3489542	1.5084451	0.013360101	-0.022004608
sim_inspiral:simulation_id:153	0.9717283	-0.064234546	2.8091731	163.99326	1.3892051	1.3747633	-0.03459679	0.0031669556
sim_inspiral:simulation_id:154	3.1702948	0.45709835	0.470531	92.307373	1.4432365	1.3154526	0.022053982	0.041359235
sim_inspiral:simulation_id:155	1.2306725	-0.099243034	0.40427571	150.31127	1.4023088	1.4647806	0.001578922	-0.012280652
sim_inspiral:simulation_id:156	0.015931036	0.61467066	1.6374141	16.064637	1.2937022	1.3891095	-0.037489568	0.041622484
sim_inspiral:simulation_id:157	3.0456751	0.92737393	2.7579965	40.779459	1.2229402	1.3754982	0.045565579	-0.014976497
sim_inspiral:simulation_id:158	3.6245683	-0.79855635	0.4640689	164.76063	1.3659798	1.4207016	-0.018437976	0.01370333
sim_inspiral:simulation_id:159	3.5990158	0.89021976	1.2680419	37.174558	1.2662648	1.4290959	0.002378425	-0.022983582
sim_inspiral:simulation_id:160	3.5764709	-0.40360316	1.855567	136.68638	1.5084025	1.4287672	0.014089494	0.012415551
sim_inspiral:simulation_id:161	3.1134607	0.29035358	2.3311369	74.394556	1.4737403	1.2587976	-0.037403412	0.010617967
sim_inspiral:simulation_id:162	1.2020788	0.43452623	0.69579579	128.65038	1.3625155	1.3255595	-0.0042988674	-0.028878593
sim_inspiral:simulation_id:163	3.8551215	-0.38770091	2.759229	131.32533	1.2743598	1.4462491	0.028420975	-0.010079195
sim_inspiral:simulation_id:164	1.1240151	0.44296973	2.6955904	119.08814	1.4506489	1.3454561	-0.034952187	-0.048718339
sim_inspiral:simulation_id:165	2.1344322	0.79661584	0.71134745	163.58288	1.2848823	1.3702824	0.0032688381	0.03346496
sim_inspiral:simulation_id:166	2.9289806	-0.58057373	2.9024643	170.27205	1.3634224	1.3103027	-0.017364932	0.047938273
sim_inspiral:simulation_id:167	1.0218123	-0.67745224	0.57391865	77.479964	1.3335872	1.2954257	-0.0080927974	-0.044258678
sim_inspiral:simulation_id:168	2.7486275	0.31208071	2.581862	70.291993	1.2483076	1.5149806	-0.040672687	0.025819259
sim_inspiral:simulation_id:169	5.7382384	-0.38878598	0.32415369	156.51212	1.3241197	1.2982911	0.014474456	0.016230868
sim_inspiral:simulation_id:170	4.157809	-0.61528431	0.28650568	56.156926	1.4386945	1.2963661	-0.034437009	-0.0089414748
sim_inspiral:simulation_id:171	2.952215	-1.1668386	0.63804701	140.8042	1.3830407	1.5876855	0.030781648	0.00019330059
sim_inspiral:simulation_id:172	2.8956039	0.92734206	0.54591942	227.08287	1.5257531	1.4639679	-0.04756114	0.038216877
sim_inspiral:simulation_id:173	5.0108365	0.50643737	0.20428437	87.295514	1.2882576	1.2496419	0.041543181	-0.01097274
sim_inspiral:simulation_id:174	0.026354015	0.44360197	1.8437829	127.93129	1.3975585	1.3992617	-0.0085846063	0.018650609
sim_inspiral:simulation_id:175	2.0084479	-0.26939476	0.84141355	128.60532	1.3989027	1.3840887	-0.046513382	-0.010774113
sim_inspiral:simulation_id:176	5.8569945	-0.45482265	2.4958936	49.086816	1.3772867	1.2945834	-0.031710906	-0.0075370002
sim_inspiral:simulation_id:177	3.4030555	1.1035113	0.43678299	167.89614	1.3106591	1.3747535	-0.026973114	0.045443106
sim_inspiral:simulation_id:178	1.4090877	0.11666149	0.49446878	156.00921	1.3658298	1.3047106	0.045461472	-0.047760535
sim_inspiral:simulation_id:179	3.1131369	-0.20848593	2.0634903	34.069227	1.4205158	1.2934767	-0.0046380499	0.029877239
sim_inspiral:simulation_id:180	3.6572571	0.27188923	0.82795851	98.844947	1.521813	1.4350942	0.025360336	0.040087375
sim_inspiral:simulation_id:181	3.9516772	0.039305117	0.99229729	78.647966	1.2425766	1.3044471	-0.0047518365	0.0027821858
sim_inspiral:simulation_id:182	3.1186269	-0.29922481	2.7807125	59.482963	1.2406793	1.159096	-0.012261419	0.049206658
sim_inspiral:simulation_id:183	2.7204169	-0.80348656	0.44008551	194.02076	1.3259567	1.4900808	0.0011664368	-0.032250051
sim_inspiral:simulation_id:184	4.554692	0.38409378	0.27478082	208.22094	1.3528158	1.3974548	0.018839844	-0.030243304
sim_inspiral:simulation_id:185	6.1643706	-1.2139721	2.8137023	89.975398	1.5528223	1.1926307	-0.049565301	0.045887096
sim_inspiral:simulation_id:186	5.0105508	0.32604571	0.33723464	156.7498	1.4551518	1.3764014	0.029197371	-0.03856447
sim_inspiral:simulation_id:187	0.9771106	-1.339871	2.6492559	129.20166	1.3862424	1.302815	0.038943929	0.021743072
sim_inspiral:simulation_id:188	2.5732697	0.82011461	2.9256869	183.19501	1.4990832	1.3579316	0.013301606	-0.049310858
sim_inspiral:simulation_id:189	0.5628043	0.38192003	2.6055751	79.836465	1.4214195	1.4499837	-0.016588817	0.0018938346
sim_inspiral:simulation_id:190	4.4854884	1.2752421	2.0923902	137.07545	1.2567203	1.6554444	-0.032403213	0.014350962
sim_inspiral:simulation_id:191	2.7428321	0.4620264	2.3316426	143.68773	1.3508169	1.458346	0.012313527	-0.034542176
sim_inspiral:simulation_id:192	1.8058076	0.95193188	2.3362492	97.542123	1.4657899	1.4904576	0.013332231	0.012491986
sim_inspiral:simulation_id:193	3.9651595	0.23322722	1.969945	53.839864	1.3558934	1.4372093	0.043144018	-0.0194556
sim_inspiral:simulation_id:194	3.8477841	1.0650093	0.09911728	149.26128	1.3003643	1.3907285	0.026729922	-0.03556398
sim_inspiral:simulation_id:195	3.1036407	-0.56090539	1.5048094	57.512074	1.4105263	1.4475925	0.027802795	-0.033109694
sim_inspiral:simulation_id:196	0.82378603	-0.91171377	0.42598538	133.70931	1.2722729	1.4535303	-0.013357131	0.0051627915
sim_inspiral:simulation_id:197	5.1206626	0.32029876	2.7588502	205.45534	1.3160928	1.4091604	-0.010422092	0.014894545
sim_inspiral:simulation_id:198	0.81461159	-0.70127235	2.3792207	128.79289	1.2537018	1.3372548	0.029542056	0.031074378
sim_inspiral:simulation_id:199	1.1977527	-0.48435203	1.1008124	80.36927	1.2780981	1.3476603	-0.044055292	0.049392559
sim_inspiral:simulation_id:200	3.6470345	0.4705841	2.1928216	44.653917	1.4294589	1.3779302	-0.013660264	-0.010693351
sim_inspiral:simulation_id:201	6.1540313	0.38748712	2.8985201	68.482651	1.4087703	1.2968085	-0.0018944167	0.044098435
sim_inspiral:simulation_id:202	0.18995016	-0.27284395	1.0919115	86.510734	1.273614	1.3363004	-0.024194492	-0.021439597
sim_inspiral:simulation_id:203	5.9376407	0.71461516	0.69707894	155.39386	1.2882276	1.4073924	-0.0017806987	-0.0089764016
sim_inspiral:simulation_id:204	4.9319186	-0.64291676	0.54162554	205.44786	1.2586685	1.426441	0.033334916	-0.024410644
sim_inspiral:simulation_id:205	5.9912059	-0.23842163	2.946071	188.62296	1.5307344	1.4534721	0.035916356	-0.044387647
sim_inspiral:simulation_id:206	0.094489017	-0.51789038	1.7782146	36.32925	1.3969296	1.4496519	0.013995975	-0.020671447
sim_inspiral:simulation_id:207	4.8658474	-0.13687829	2.2109919	36.586714	1.2409497	1.3741706	-0.030891332	-0.023303796
sim_inspiral:simulation_id:208	0.46057452	0.96522163	2.5276764	194.33425	1.5312394	1.1293617	-0.018185119	-0.0322929
sim_inspiral:simulation_id:209	1.5908645	-0.76670567	2.3232758	142.46748	1.3955255	1.2716061	0.04928954	-0.038621907
sim_inspiral:simulation_id:210	5.0160333	-0.11147998	0.6588791	135.6266	1.462556	1.4592725	-0.027585655	0.043940029
sim_inspiral:simulation_id:211	0.30154741	-1.0198006	2.4506434	120.71843	1.3448448	1.329987	-0.0050051904	0.029173143
sim_inspiral:simulation_id:212	4.4171475	0.27509783	2.7010272	224.63056	1.4194103	1.4055298	0.012896242	0.021144865
sim_inspiral:simulation_id:213	1.6330959	-0.66914752	2.5502788	71.56717	1.3802595	1.024041	-0.021567849	0.047407138
sim_inspiral:simulation_id:214	3.3547077	0.58618609	2.2334633	115.56246	1.2214977	1.3545314	-0.0093723622	-0.017482198
sim_inspiral:simulation_id:215	0.67903176	-0.12655889	1.0399726	85.482043	1.3914718	1.4298084	0.04910708	0.044910368
sim_inspiral:simulation_id:216	6.1769038	0.21762784	0.72995218	166.77184	1.3363287	1.2628508	0.048230135	-0.040307358
sim_inspiral:simulation_id:217	3.1234204	-0.049860012	1.9317621	56.550432	1.318107	1.5098164	-0.0181292	-0.043626279
sim_inspiral:simulation_id:218	1.3284805	0.43674926	2.7477621	112.47431	1.1898973	1.3307615	0.032991303	-0.02148403
sim_inspiral:simulation_id:219	0.79771983	0.38320523	2.501235	38.578209	1.3824547	1.518429	-0.046044515	-0.013836734
sim_inspiral:simulation_id:220	4.0097921	1.2667517	1.6828496	51.028473	1.3189602	1.2826969	0.0083409263	-0.0061922297
sim_inspiral:simulation_id:221	1.4395058	0.6211646	1.2651968	83.094581	1.2288846	1.3781056	-0.0066691763	0.032560354
sim_inspiral:simulation_id:222	4.1400802	-0.53333711	0.84883836	115.32795	1.2775689	1.3126455	0.0017228058	0.023478772
sim_inspiral:simulation_id:223	2.77029	-0.44451364	1.1630804	135.15628	1.392875	1.4255512	-0.040047861	-0.022999238
sim_inspiral:simulation_id:224	4.0649161	0.14725867	2.1334331	95.459795	1.5130604	1.3717796	-0.049420993	-0.035771788
sim_inspiral:simulation_id:225	5.1576604	0.23088895	2.4813661	81.825024	1.4366105	1.3619866	-0.010195523	-0.011736499
sim_inspiral:simulation_id:226	4.3921306	0.20585159	2.6650427	118.95361	1.4735036	1.3453169	0.020452162	0.0071554525
sim_inspiral:simulation_id:227	3.2900358	-0.32947652	2.5762024	190.97635	1.3824558	1.4381438	-0.024211072	-0.047594412
sim_inspiral:simulation_id:228	0.37470188	0.88361699	2.4811824	144.36124	1.5712316	1.4376118	-0.027639452	-0.011229579
sim_inspiral:simulation_id:229	0.33076443	-1.1923309	0.79798053	68.339217	1.2694985	1.2434938	0.018087491	-0.0028318142
sim_inspiral:simulation_id:230	4.9293788	0.41118408	2.3741366	25.251273	1.6026864	1.4689184	-0.00035132744	-0.0038627983
sim_inspiral:simulation_id:231	0.76927085	-0.67843506	1.8985063	52.916615	1.2876959	1.2389518	0.030901017	0.0040098327
sim_inspiral:simulation_id:232	1.8481434	-0.52562726	2.7677144	66.151615	1.4296236	1.4633063	-0.039381031	-0.042101041
sim_inspiral:simulation_id:233	1.6156538	0.47637823	2.59962	186.41554	1.3169543	1.4306865	0.025493876	-0.020992423
sim_inspiral:simulation_id:234	0.071567941	-0.76321356	1.2087936	76.414986	1.5164491	1.4320754	-0.00064263613	-0.046348761
sim_inspiral:simulation_id:235	4.8883955	-0.82466818	0.36240288	113.63104	1.2884661	1.3804245	-0.0092172449	-0.037385372
sim_inspiral:simulation_id:236	4.8958733	1.0248441	2.452449	155.00463	1.3456118	1.4786311	0.029266332	-0.044641519
sim_inspiral:simulation_id:237	3.6191787	-0.69935616	2.8923514	93.749181	1.4211498	1.3398999	-0.01672731	-0.0063993445
sim_inspiral:simulation_id:238	5.6221031	0.24703327	0.39155841	213.52495	1.4646272	1.2275361	-0.038058054	-0.025656068
sim_inspiral:simulation_id:239	1.0405134	-0.20192381	2.1291488	43.242202	1.2594239	1.2795677	-0.0046647688	0.021297224
sim_inspiral:simulation_id:240	2.8536454	-0.63373408	0.938039	85.154317	1.3764328	1.4036448	-0.0094906729	0.029211774
sim_inspiral:simulation_id:241	5.0241071	0.25007122	0.21159979	115.63521	1.2736176	1.3628228	-0.02208917	0.037886538
sim_inspiral:simulation_id:242	4.0739034	-0.21068973	0.66346368	127.52547	1.4260092	1.2958181	0.041521824	-0.022885282
sim_inspiral:simulation_id:243	2.8581456	0.96380067	1.15788	68.619366	1.2255858	1.4232757	0.015867411	-0.0010957432
sim_inspiral:simulation_id:244	0.30519797	-0.60676536	2.4843574	64.649268	1.5436452	1.2699048	-0.033574507	-0.030514346
sim_inspiral:simulation_id:245	3.7934761	-0.3560782	2.6384947	164.3072	1.370801	1.2267313	-0.022467015	-0.032035172
sim_inspiral:simulation_id:246	0.037693322	0.44629913	0.40704782	69.532576	1.4105703	1.391353	-0.016011423	-0.012628515
sim_inspiral:simulation_id:247	1.5302283	-0.41386654	2.2064141	101.17066	1.3879469	1.4190475	0.034379298	0.0079010227
sim_inspiral:simulation_id:248	1.897034	-0.50073628	0.10024207	161.75813	1.3163175	1.3180601	-0.045108606	0.033084074
sim_inspiral:simulation_id:249	4.3715882	-0.77595383	1.2550526	44.896275	1.395991	1.4692413	-0.0041949667	-0.026953892
sim_inspiral:simulation_id:250	3.3602517	-0.16309499	2.2883574	68.816154	1.374864	1.3730435	-0.0014110743	-0.019867278
sim_inspiral:simulation_id:251	2.9330035	0.79072282	1.4711935	71.432346	1.442323	1.0976917	-0.032155309	0.020114319
sim_inspiral:simulation_id:252	3.9506666	0.85352357	0.77018154	115.62429	1.3882936	1.3917503	-0.0048168914	-0.0063378482
sim_inspiral:simulation_id:253	5.7386721	-0.19083744	2.4285518	124.55037	1.3941498	1.4157763	-0.049977801	-0.023941057
sim_inspiral:simulation_id:254	1.4563567	-0.10422544	2.9381482	93.523138	1.4263718	1.3032197	0.011928593	-0.045258306
sim_inspiral:simulation_id:255	5.0445508	0.25131957	2.4766808	164.43623	1.3889068	1.3703858	0.028065628	-0.020245232
sim_inspiral:simulation_id:256	6.0214657	-0.28848891	2.8675093	158.55083	1.5312002	1.3568526	-0.0098187854	0.016808037
sim_inspiral:simulation_id:257	0.2972361	-0.71221157	0.33635264	47.32815	1.325844	1.2074201	0.041807166	0.018988022
sim_inspiral:simulation_id:258	1.3468372	-0.34207695	0.40978292	78.265734	1.1972003	1.2580113	-0.00054756343	0.029553551
sim_inspiral:simulation_id:259	2.4935924	-1.484579	2.8516722	95.451296	1.1979956	1.2380679	-0.0056113643	-0.015147105
sim_inspiral:simulation_id:260	3.9794141	-0.88016847	0.41491838	118.24041	1.3022889	1.4780323	0.029567726	-0.047515226
sim_inspiral:simulation_id:261	5.9479927	0.87114743	2.5606941	86.219937	1.4370734	1.2790063	-0.038125432	-0.048507472
sim_inspiral:simulation_id:262	4.732353	0.7612	2.3992259	98.464984	1.4439297	1.42879	0.02567291	-0.014410664
sim_inspiral:simulation_id:263	4.0699765	-0.58248604	2.3599313	156.08098	1.3593981	1.3745314	-0.04211522	0.016909579
sim_inspiral:simulation_id:264	2.5369018	-0.44855959	2.7053208	67.283961	1.2976865	1.2782069	0.02856132	0.0080154073
sim_inspiral:simulation_id:265	5.9052694	-0.67511781	0.9112127	73.7689	1.1974093	1.3031346	-0.012117118	-0.049181338
sim_inspiral:simulation_id:266	4.5553004	0.088307271	2.9418868	190.13035	1.2440909	1.3066079	0.0100604	0.011970321
sim_inspiral:simulation_id:267	3.9637028	0.69362822	2.3697759	124.18057	1.3062623	1.2955428	-0.021648172	-0.0093438876
sim_inspiral:simulation_id:268	1.7815895	-0.33262286	0.31337496	174.01227	1.4431977	1.357261	-0.03288995	0.034554605
sim_inspiral:simulation_id:269	2.9277687	-0.65704339	2.1837785	43.715596	1.3654582	1.4439176	-0.03156102	-0.035118323
sim_inspiral:simulation_id:270	1.0645558	-0.17023452	0.71020419	143.91678	1.490081	1.3426102	0.043793874	-0.018243166
sim_inspiral:simulation_id:271	0.32232217	-0.9244999	1.9538928	164.45581	1.2928196	1.3497101	0.044104312	0.030161898
sim_inspiral:simulation_id:272	3.7105208	-0.8211977	0.92788829	86.905654	1.2652319	1.3810201	-0.00014681748	0.025531899
sim_inspiral:simulation_id:273	0.4276221	0.99305525	2.9433143	175.84811	1.2815078	1.3068151	0.041095569	-0.04726004
sim_inspiral:simulation_id:274	2.6599931	-0.58907124	2.1905116	28.371134	1.4891023	1.324625	0.026044353	-0.00080407867
sim_inspiral:simulation_id:275	3.6402261	-0.69964643	0.8492905	178.20785	1.4594917	1.3138642	0.04857673	0.00010380663
sim_inspiral:simulation_id:276	3.9366418	0.75202587	2.8394167	39.151686	1.2204108	1.4401479	-0.045811515	0.0099043383
sim_inspiral:simulation_id:277	3.4851427	-1.1908518	0.99711824	102.8713	1.450322	1.3948522	0.027312757	0.0087236776
sim_inspiral:simulation_id:278	2.651412	0.030686803	2.8181589	114.35614	1.4524349	1.4906639	-0.049334673	0.004005337
sim_inspiral:simulation_id:279	0.10537787	-0.37978856	0.30693781	90.645017	1.3351819	1.4343707	0.022754535	0.038330576
sim_inspiral:simulation_id:280	4.5540219	0.2169655	0.67365465	145.27588	1.3531519	1.4493004	-0.022383596	0.0043486769
sim_inspiral:simulation_id:281	6.2308124	-0.38464503	2.7396061	132.66779	1.5203644	1.2346701	0.029124189	-0.018067706
sim_inspiral:simulation_id:282	4.5915397	0.15441986	0.22288072	209.4206	1.4430956	1.4089871	-0.026298199	-0.027287474
sim_inspiral:simulation_id:283	3.6807776	0.94051256	0.49076169	192.52871	1.3584124	1.5163155	-0.02914788	-0.0063501389
sim_inspiral:simulation_id:284	5.1489683	-0.74877832	0.8169128	132.68696	1.1798052	1.4881735	0.0059189495	0.010228342
sim_inspiral:simulation_id:285	1.6197939	1.2545518	2.7508351	166.67477	1.4400886	1.2360016	-0.021325343	0.032534946
sim_inspiral:simulation_id:286	3.034432	-0.46837097	2.0354855	130.73365	1.5348955	1.2979939	0.014177136	0.02295359
sim_inspiral:simulation_id:287	2.5786071	0.56852928	2.2630953	127.89933	1.5429439	1.2454471	-0.029915254	0.022460638
sim_inspiral:simulation_id:288	3.0863048	0.30408582	2.016691	73.551806	1.3080353	1.2697456	0.012889993	0.024829962
sim_inspiral:simulation_id:289	5.5283997	-0.058466117	0.33663449	172.10785	1.4584844	1.461028	0.016457483	-0.017747856
sim_inspiral:simulation_id:290	5.5355708	-0.58277842	3.0576001	74.979775	1.432328	1.2879275	0.033575516	-0.026578557
sim_inspiral:simulation_id:291	4.9334975	1.1641193	2.7299234	95.806223	1.3339691	1.4424958	0.0052999117	0.019341326
sim_inspiral:simulation_id:292	0.83925666	-0.78769812	0.34716339	218.16203	1.409157	1.3912988	-0.018520325	-0.049859871
sim_inspiral:simulation_id:293	4.3611351	-1.1396107	2.564843	138.18295	1.5430681	1.4921219	0.0090979897	0.0235884
sim_inspiral:simulation_id:294	2.8679043	0.58666584	0.5479894	189.43507	1.4225652	1.3710123	0.0029868661	0.0053145893
sim_inspiral:simulation_id:295	0.2676747	-0.9574596	2.4896705	150.75317	1.2674658	1.2993866	0.014208335	0.011682278
sim_inspiral:simulation_id:296	2.2493619	0.086433242	0.92541043	104.47073	1.4388805	1.3108729	-0.037843991	-0.041031265
sim_inspiral:simulation_id:297	4.7388593	1.4731821	2.8155486	159.93714	1.3259622	1.3674092	-0.038437818	-0.02148601
sim_inspiral:simulation_id:298	2.2644839	0.63206604	0.86952363	108.28683	1.3089767	1.6093277	-0.0048307253	0.017487179
sim_inspiral:simulation_id:299	2.2646469	-0.039421649	2.9710144	248.29586	1.4302463	1.3615134	-0.008378973	0.021415416
sim_inspiral:simulation_id:300	0.60406701	0.34914415	2.4386198	49.646331	1.1641527	1.4532609	-0.015564828	0.045617654
sim_inspiral:simulation_id:301	5.1529923	-0.4039123	0.53428822	169.60086	1.3980092	1.3932617	0.00024120614	-0.038195993
sim_inspiral:simulation_id:302	3.2046901	-0.36785334	2.1113789	46.191499	1.2927543	1.293311	-0.024617492	-0.035377412
sim_inspiral:simulation_id:303	5.6372463	-0.36051075	0.47492836	141.80198	1.3294416	1.261999	-0.0075975076	0.024119497
sim_inspiral:simulation_id:304	2.2516112	0.95642623	0.22391238	188.70239	1.4049238	1.4189196	-0.017638981	-0.0052033132
sim_inspiral:simulation_id:305	4.2412913	0.096118594	0.33633368	196.19877	1.3573519	1.3178595	-0.0074615804	0.023819975
sim_inspiral:simulation_id:306	5.9014964	-1.0791188	2.1658318	106.42899	1.3752599	1.336151	0.027573698	0.020098214
sim_inspiral:simulation_id:307	5.960201	-0.97354259	2.8758904	152.3117	1.3596309	1.4163282	0.032772527	-0.032881732
sim_inspiral:simulation_id:308	0.60238556	0.49001676	1.3489232	27.913961	1.247741	1.3476355	-0.033280728	-0.032297293
sim_inspiral:simulation_id:309	1.578151	0.68273285	0.49029064	161.27236	1.2451816	1.3915359	0.039113087	-0.042159805
sim_inspiral:simulation_id:310	0.20615184	0.10154861	0.2514156	157.77883	1.5734608	1.4654569	-0.012734351	0.038537965
sim_inspiral:simulation_id:311	6.2278692	-1.0180621	0.41454558	194.02416	1.2702222	1.2305009	-0.033959622	-0.011417887
sim_inspiral:simulation_id:312	4.8536291	-0.82013672	2.9348935	188.67192	1.2847709	1.2409686	-0.036896611	0.043286992
sim_inspiral:simulation_id:313	5.7382843	-0.66776414	2.3597876	130.26208	1.3874716	1.3630447	0.020019099	-0.0078407452
sim_inspiral:simulation_id:314	5.4269301	0.12368244	0.60056097	112.8066	1.4891526	1.3080751	0.016298216	0.018778661
sim_inspiral:simulation_id:315	2.5701621	-0.36320629	0.44330949	155.57035	1.4951487	1.5389548	-0.0080037959	0.014604899
sim_inspiral:simulation_id:316	2.9048639	0.2826927	0.071310344	102.06904	1.4251942	1.4160702	0.011609712	-0.0073548528
sim_inspiral:simulation_id:317	5.7092629	1.2167602	1.8040961	99.411661	1.3189618	1.3325061	-0.0012074871	0.037870804
sim_inspiral:simulation_id:318	2.3303794	-0.41877701	2.6878206	216.66342	1.3814848	1.3393633	-0.047904578	0.030438817
sim_inspiral:simulation_id:319	3.3162077	-0.87488401	2.0871093	96.109604	1.4601039	1.3074678	-0.022749072	-0.014709386
sim_inspiral:simulation_id:320	0.78029002	-0.27373386	2.5516913	144.32816	1.3772865	1.4084616	0.020244845	0.016157667
sim_inspiral:simulation_id:321	2.1131158	0.47801209	0.53056056	121.00207	1.3927228	1.2641768	-0.012513418	-0.012502793
sim_inspiral:simulation_id:322	4.2513682	-0.18586282	2.1488289	74.836856	1.3824263	1.2600513	-0.018325614	-0.011155004
sim_inspiral:simulation_id:323	5.9505395	-0.39687431	0.75689809	109.98171	1.3257694	1.3233528	-0.0014147421	0.010237362
sim_inspiral:simulation_id:324	3.6814322	-1.1356572	2.2108347	76.582877	1.4286891	1.5083995	0.022710479	0.030544917
sim_inspiral:simulation_id:325	0.016119965	-0.98558615	0.29720636	158.72675	1.6870754	1.4064932	0.045057289	0.020617426
sim_inspiral:simulation_id:326	0.051687594	1.0642235	2.9307175	93.050947	1.3296757	1.4769338	-0.040448387	0.017502735
sim_inspiral:simulation_id:327	0.59256419	0.48957292	0.90499141	121.28198	1.3100825	1.1098811	0.013426422	0.011986852
sim_inspiral:simulation_id:328	6.1059155	0.019850014	1.6007969	37.480615	1.240321	1.1940461	0.023867016	-0.019066489
sim_inspiral:simulation_id:329	3.2760212	-0.32438548	2.1814031	150.90932	1.5307472	1.3662443	-0.01280844	0.02207323
sim_inspiral:simulation_id:330	2.3162878	-0.40139467	0.84973555	71.010616	1.3608654	1.1633508	0.0097861414	0.041109689
sim_inspiral:simulation_id:331	2.4843387	-0.63342878	0.82993908	103.41656	1.4238157	1.3617181	-0.025524207	-0.041418229
sim_inspiral:simulation_id:332	3.51755	0.33863112	2.6575307	164.16884	1.5215424	1.4192608	-0.0053838259	0.031647157
sim_inspiral:simulation_id:333	3.5654772	-0.36656186	0.84721125	38.234465	1.4419778	1.3004268	-0.0080025279	-0.033075942
sim_inspiral:simulation_id:334	3.7440265	-0.15268621	2.1530336	49.058688	1.3023631	1.383584	-0.029883262	0.046665918
sim_inspiral:simulation_id:335	5.189314	0.84780042	0.47701831	249.18202	1.4031182	1.3247615	0.011399684	-0.047617612
sim_inspiral:simulation_id:336	1.6581578	-0.79825195	2.713137	186.05442	1.3426536	1.4613609	-0.025282899	0.030285413
sim_inspiral:simulation_id:337	1.3232482	0.17631743	1.9488808	51.298505	1.3928106	1.4663354	-0.042749836	0.04243066
sim_inspiral:simulation_id:338	3.4688025	0.10899923	1.0235935	63.911176	1.2432401	1.3123705	-0.0023017821	0.045136095
sim_inspiral:simulation_id:339	4.0103365	-0.2046034	2.677069	140.83144	1.3676535	1.2121607	0.033349303	-0.02526764
sim_inspiral:simulation_id:340	4.0518379	-0.95596157	1.6610806	18.210924	1.2400563	1.3713345	0.0011148234	0.031040667
sim_inspiral:simulation_id:341	1.8330349	-0.51069949	0.36343795	190.43103	1.3332057	1.4401631	-0.049335963	-0.0079261968
sim_inspiral:simulation_id:342	3.1310527	0.73292878	2.5154483	184.15978	1.3396017	1.3251488	0.03481203	-0.011375242
sim_inspiral:simulation_id:343	2.0625266	0.80405025	0.6864415	31.733415	1.4132658	1.4018117	-0.0030494695	-0.0059310191
sim_inspiral:simulation_id:344	2.5011463	0.93473387	2.8959898	174.68064	1.5498484	1.4054867	0.010879049	0.033616428
sim_inspiral:simulation_id:345	4.3202019	-0.54453752	2.4387152	118.04325	1.4198928	1.3495893	-0.021645294	-0.02194302
sim_inspiral:simulation_id:346	3.9142552	0.652384	0.29254243	194.69489	1.367594	1.3751928	0.038801094	0.0076826021
sim_inspiral:simulation_id:347	2.2790629	0.59592029	2.8845293	251.39162	1.5564008	1.5646208	-0.013980332	0.011968473
sim_inspiral:simulation_id:348	0.50645025	-0.61155276	0.37531633	214.06144	1.2878201	1.4146358	-0.038882562	-0.0012618964
sim_inspiral:simulation_id:349	1.487566	0.85796308	0.1905832	180.47058	1.530069	1.3774951	0.026205852	-0.029426235
sim_inspiral:simulation_id:350	3.1988154	-0.031517798	1.1161735	100.44495	1.2760298	1.2294508	-0.001733736	-0.010072033
sim_inspiral:simulation_id:351	0.063339517	-0.63713579	2.7674577	47.112401	1.4141208	1.3530908	0.035628477	-0.03518114
sim_inspiral:simulation_id:352	2.9799223	0.13179346	2.6146859	102.23104	1.3378513	1.3158553	0.044075984	0.045233183
sim_inspiral:simulation_id:353	3.4676742	-0.14941426	1.0050286	144.23472	1.4713929	1.3655393	0.029567299	0.037000279
sim_inspiral:simulation_id:354	4.9983809	-0.35150653	0.54201847	170.40122	1.4609471	1.480227	0.049582323	-0.011490549
sim_inspiral:simulation_id:355	4.3730077	0.010998703	0.42258814	190.8883	1.4774705	1.3594935	0.046030201	0.015727415
sim_inspiral:simulation_id:356	0.2944252	-0.9097834	2.6860395	190.11906	1.4154691	1.5309934	0.016067435	-0.020032866
sim_inspiral:simulation_id:357	5.1238723	-0.8408414	1.7645953	20.936292	1.3531011	1.4086606	0.0047857635	-0.014302816
sim_inspiral:simulation_id:358	0.049896859	0.85547547	0.71539674	67.594263	1.4279043	1.4906248	-0.049544504	0.011456185
sim_inspiral:simulation_id:359	2.4175214	-1.4554284	2.1765479	133.17343	1.416747	1.4235557	0.045709077	-0.022722013
sim_inspiral:simulation_id:360	2.7712574	-0.44812716	0.93798848	145.60014	1.5126404	1.2314131	-0.0079885537	0.016200647
sim_inspiral:simulation_id:361	3.5269002	0.69098241	0.56212452	210.05018	1.5388293	1.3563911	-0.011008066	-0.036113599
sim_inspiral:simulation_id:362	4.492636	0.74268934	2.8086364	227.38208	1.3103259	1.4105951	-0.01910708	0.042617569
sim_inspiral:simulation_id:363	3.5694656	0.27279114	0.8744061	86.529247	1.4846892	1.3382289	-0.018098759	-0.041066595
sim_inspiral:simulation_id:364	3.130594	-0.2384427	2.4498063	159.02439	1.2502836	1.3813786	-0.021358163	-0.014273574
sim_inspiral:simulation_id:365	5.5076023	0.67323432	0.61469424	164.60828	1.3165946	1.2662969	-0.037080562	-0.026759615
sim_inspiral:simulation_id:366	5.0899609	0.024319926	2.9357742	173.947	1.6874638	1.48522	-0.047278598	0.0017889665
sim_inspiral:simulation_id:367	4.4760139	0.033225638	0.46273962	102.25788	1.3015367	1.4889772	0.044682988	-0.003935705
sim_inspiral:simulation_id:368	4.1198535	-0.52759292	2.8247483	192.49573	1.3064191	1.3976973	0.026742196	0.036004746
sim_inspiral:simulation_id:369	2.6033719	1.0462884	2.2942178	101.02941	1.3562868	1.4326512	-0.011606111	0.0057165743
sim_inspiral:simulation_id:370	3.9686078	0.88218475	2.5129639	53.777735	1.313598	1.3882164	-0.045004224	0.014814253
sim_inspiral:simulation_id:371	3.2084252	0.25571105	0.59547449	115.71725	1.1951861	1.2233512	-0.048223048	0.020567414
sim_inspiral:simulation_id:372	2.6994488	-0.97409925	0.5071688	85.749594	1.4872444	1.3913922	-0.0086193582	-0.029786188
sim_inspiral:simulation_id:373	5.7015683	-0.10685076	0.50979235	96.408458	1.2777236	1.2457614	0.049923654	-0.026227642
sim_inspiral:simulation_id:374	3.114403	0.23188824	2.8979599	146.79027	1.4882246	1.3913761	0.0017146031	-0.021269238
sim_inspiral:simulation_id:375	1.5815931	1.0274898	2.8979531	171.2722	1.3982232	1.415676	0.043964075	0.014779043
sim_inspiral:simulation_id:376	3.3999956	-0.50785689	2.6002982	105.70838	1.3619742	1.3309005	0.016702192	-0.041374587
sim_inspiral:simulation_id:377	1.1306924	1.2488147	1.2224993	83.967716	1.2189618	1.3617845	-0.030601872	-0.043392006
sim_inspiral:simulation_id:378	3.5288531	0.088515682	0.91726086	89.23528	1.2854558	1.3786813	-0.037043287	-0.0058068355
sim_inspiral:simulation_id:379	5.9111828	-0.56493447	2.1341314	45.139786	1.2515424	1.3555871	0.041441489	-0.031414889
sim_inspiral:simulation_id:380	5.2715905	0.095290845	0.95905186	45.186377	1.4408586	1.3250659	-0.03262289	-0.045965961
sim_inspiral:simulation_id:381	5.206283	0.8614769	1.715222	58.498684	1.275371	1.3841603	0.03625405	-0.037901729
sim_inspiral:simulation_id:382	3.0880519	-0.75933635	0.9074696	155.62213	1.3680945	1.5940651	-0.010204489	0.017918055
sim_inspiral:simulation_id:383	5.3474079	0.66448176	0.50231689	115.34774	1.4682862	1.3464396	0.025499387	-0.022530182
sim_inspiral:simulation_id:384	5.1317697	0.12105559	1.8184198	71.171712	1.3594119	1.239977	-0.036419326	-0.041230289
sim_inspiral:simulation_id:385	5.4101316	-0.68523432	2.3577209	93.256242	1.3126377	1.4419481	0.021501928	-0.043821124
sim_inspiral:simulation_id:386	3.6643842	-0.3602873	0.6142263	143.2403	1.2769659	1.2883356	0.046885892	-0.046194613
sim_inspiral:simulation_id:387	4.6036291	0.57834621	0.88951524	52.94002	1.3231564	1.4462854	-0.0007165099	-0.042277582
sim_inspiral:simulation_id:388	4.2041517	0.56059131	0.35015225	56.493979	1.3371985	1.4846538	0.021581157	0.043119625
sim_inspiral:simulation_id:389	2.6478009	-0.79465981	2.7738617	103.23891	1.4452241	1.2848528	-0.018943509	0.01142183
sim_inspiral:simulation_id:390	5.8705388	0.16169952	0.43939598	52.349515	1.3748678	1.4359371	-0.021972751	0.029267951
sim_inspiral:simulation_id:391	1.4411012	-0.28850786	2.4032117	143.12237	1.3614191	1.4953357	-0.038914809	-0.028097949
sim_inspiral:simulation_id:392	0.99319781	1.3470437	0.11196886	158.54227	1.3688039	1.6579313	-0.028745476	0.030043331
sim_inspiral:simulation_id:393	0.64557329	0.038944176	2.3589069	82.080593	1.3980838	1.3338254	0.044215055	0.0465524
sim_inspiral:simulation_id:394	5.0718154	0.22796797	3.0223292	78.922391	1.3546082	1.3108919	-0.040169729	-0.0075969933
sim_inspiral:simulation_id:395	6.2629553	0.75871643	0.20762996	149.20299	1.3867605	1.4153955	0.032749868	0.0045110488
sim_inspiral:simulation_id:396	2.8358361	0.73967957	0.37835192	218.48627	1.3742963	1.374459	0.010350175	-0.02032492
sim_inspiral:simulation_id:397	4.5468044	0.50196439	0.41122463	222.99678	1.3540236	1.3164452	0.021702648	-0.013067964
sim_inspiral:simulation_id:398	2.0992109	-0.76245227	0.092057349	116.87624	1.4042821	1.5431249	-0.0014365796	0.02129689
sim_inspiral:simulation_id:399	1.602827	-0.30390381	0.63933257	91.73352	1.3790526	1.3274179	0.042129728	-0.0095615547
sim_inspiral:simulation_id:400	2.1904464	-0.90989854	2.6339944	104.54525	1.3300805	1.2806102	-0.0036864331	0.040581395
sim_inspiral:simulation_id:401	4.1460965	0.03576783	0.91956782	82.252049	1.3518303	1.248599	0.040802408	-0.028772099
sim_inspiral:simulation_id:402	3.7578117	-0.26109054	1.8502561	109.06491	1.3389933	1.3009454	-0.032079979	0.028235194
sim_inspiral:simulation_id:403	2.8658343	-0.85297475	2.0772793	55.039736	1.3360915	1.4410604	-0.013791636	0.033026391
sim_inspiral:simulation_id:404	1.5408469	-0.38029862	2.3792791	63.675552	1.411103	1.3464598	0.0029580116	-0.027724029
sim_inspiral:simulation_id:405	5.1778737	-1.1748675	1.3025961	63.372259	1.4173626	1.2747517	-0.035831041	0.033237811
sim_inspiral:simulation_id:406	5.8989051	0.71642299	2.464823	67.24132	1.4923792	1.4634876	0.0010361067	-0.03205962
sim_inspiral:simulation_id:407	1.0579479	0.12634361	0.35757593	59.330521	1.5227134	1.4595145	-0.029295149	0.041761469
sim_inspiral:simulation_id:408	5.076002	-0.38137793	0.39488728	146.21247	1.6504683	1.4120568	-0.034208087	0.028442038
sim_inspiral:simulation_id:409	4.2050073	0.86621332	0.15389105	126.22236	1.360721	1.4667231	0.023542547	0.047363461
sim_inspiral:simulation_id:410	0.15381782	-0.64549522	0.34825653	70.875958	1.4111745	1.36034	-0.013036852	0.032824821
sim_inspiral:simulation_id:411	0.11739794	-0.94796622	2.6740677	143.5162	1.5704983	1.3009675	0.03391329	0.049605705
sim_inspiral:simulation_id:412	0.38830712	-0.40073917	0.99560508	66.976938	1.4232212	1.3310226	-0.024175051	0.04958588
sim_inspiral:simulation_id:413	5.5777653	0.60418763	0.39226447	204.15537	1.4919159	1.37298	-0.005082414	0.036478282
sim_inspiral:simulation_id:414	0.53061603	0.30410805	1.0464164	53.075298	1.3050108	1.328436	-0.0091284982	-0.026258272
sim_inspiral:simulation_id:415	1.8866332	-0.82480103	2.2293124	102.1646	1.4597417	1.4421539	-0.010046156	0.029971804
sim_inspiral:simulation_id:416	6.1254053	1.3000643	2.8212192	176.5099	1.4148865	1.3341692	0.0034880929	0.0075106864
sim_inspiral:simulation_id:417	1.9343016	-1.0973995	0.98716094	80.49251	1.4907715	1.4471779	0.015368915	-0.023963669
sim_inspiral:simulation_id:418	5.1888729	-0.67920722	2.6095283	109.66544	1.3102961	1.3207804	0.013570192	0.00084145455
sim_inspiral:simulation_id:419	4.384877	1.1576019	0.55305143	106.69325	1.3149819	1.362227	-0.045466481	0.042454771
sim_inspiral:simulation_id:420	5.3561256	-0.23620583	2.3660744	133.99295	1.3010702	1.1582176	-0.031278488	0.03742834
sim_inspiral:simulation_id:421	5.2187974	0.27746782	0.066286184	163.77406	1.3934111	1.3623747	-0.049899476	-0.0087235765
sim_inspiral:simulation_id:422	1.5244713	-0.60546618	0.20685374	62.432894	1.3794863	1.1937517	-0.035278923	0.04474577
sim_inspiral:simulation_id:423	5.3633835	1.1471754	0.53593214	111.62888	1.292059	1.2528053	0.0021464202	-0.016045622
sim_inspiral:simulation_id:424	2.9969172	0.10075461	0.38253414	197.80172	1.4677134	1.3502849	-0.0035808373	0.025381291
sim_inspiral:simulation_id:425	0.18406016	0.15642937	0.49250943	140.63601	1.4227104	1.3487108	-0.026319318	0.012145682
sim_inspiral:simulation_id:426	4.4176625	-0.27580714	1.1690379	92.634389	1.3091813	1.475054	0.042024466	0.032041382
sim_inspiral:simulation_id:427	1.3888327	-0.19095798	0.97709779	104.29893	1.4079813	1.2010201	0.010191245	0.022736281
sim_inspiral:simulation_id:428	2.56156	-0.45002855	0.26975579	177.28835	1.3080731	1.4865598	-0.0010763734	0.034319077
sim_inspiral:simulation_id:429	1.1194647	-0.12314635	0.26019508	148.69734	1.3743771	1.3032833	-0.021743505	-0.012294871
sim_inspiral:simulation_id:430	2.459423	-0.50395319	1.084498	73.657387	1.4956336	1.4058169	-0.00046812799	0.0052592773
sim_inspiral:simulation_id:431	6.2481676	0.015508517	1.0712159	82.452834	1.4399107	1.2573489	0.023073582	0.0093766119
sim_inspiral:simulation_id:432	3.0130787	-0.63158367	2.0365869	91.60025	1.4162741	1.53298	0.044956362	0.046136877
sim_inspiral:simulation_id:433	5.7910203	-0.57370741	2.8403352	97.239896	1.472817	1.3470263	-0.039225962	0.045758477
sim_inspiral:simulation_id:434	4.3986478	-0.3193523	0.35173588	98.407978	1.3519523	1.5107667	-0.02835993	0.001970348
sim_inspiral:simulation_id:435	2.0145138	0.006333419	0.679712	142.66311	1.3550515	1.2443189	-0.034012226	0.041094113
sim_inspiral:simulation_id:436	3.8921259	0.19188688	1.1189105	52.269183	1.4682559	1.1921512	-0.0033354511	-0.027612978
sim_inspiral:simulation_id:437	5.3539018	-0.70201637	1.1939306	104.62605	1.2380892	1.4572403	-0.020680235	0.030200495
sim_inspiral:simulation_id:438	4.5965841	0.63906175	2.5665574	85.867965	1.4019082	1.4738471	-0.026587117	0.016329912
sim_inspiral:simulation_id:439	2.8658857	-0.79046735	2.4272909	206.11387	1.6094296	1.3612905	-0.043680651	0.0028641255
sim_inspiral:simulation_id:440	5.8060886	-0.18712793	2.5795886	95.353974	1.3392811	1.4609624	0.0019128377	0.0022793474
sim_inspiral:simulation_id:441	3.8733618	0.62694997	0.77529623	111.46212	1.3756656	1.4606339	-0.047422752	0.01160315
sim_inspiral:simulation_id:442	3.4937372	0.60476829	2.8761645	85.297532	1.3458143	1.1366746	-0.020896107	-0.040312253
sim_inspiral:simulation_id:443	3.3977018	0.30007477	0.99681157	76.08367	1.3790374	1.2593436	-0.026441275	0.045345004
sim_inspiral:simulation_id:444	5.7196688	-0.44580894	0.87396007	98.274375	1.4747206	1.57089	-0.035170556	-0.007436739
sim_inspiral:simulation_id:445	3.1279531	-0.25589436	2.8445879	173.32254	1.4162158	1.369872	0.03140562	-0.047213057
sim_inspiral:simulation_id:446	6.234649	-1.0878331	1.2010632	69.567212	1.2997992	1.2896629	0.049335748	-0.0074963449
sim_inspiral:simulation_id:447	5.8029521	1.1177367	0.84768452	54.379759	1.3681212	1.3341163	-0.0057458672	-0.01839299
sim_inspiral:simulation_id:448	6.2051854	-0.22232281	0.4080329	174.62242	1.5859937	1.3745701	0.017539058	0.013672804
sim_inspiral:simulation_id:449	4.0520574	0.33614804	2.6853963	168.75134	1.290933	1.55875	-0.033408489	0.01375425
sim_inspiral:simulation_id:450	0.24083545	0.60951893	2.3368554	130.15638	1.3558219	1.3698345	0.018890102	0.01927115
sim_inspiral:simulation_id:451	4.7205889	-0.57167834	0.84552224	67.420637	1.2132633	1.2224843	-0.02949439	0.0025007474
sim_inspiral:simulation_id:452	0.53792155	-0.57864774	2.8173477	206.60836	1.411081	1.3201204	-0.040239516	0.014927699
sim_inspiral:simulation_id:453	4.1778381	-0.40389082	0.3534484	85.998674	1.3661641	1.21975	-0.015549231	-0.042841017
sim_inspiral:simulation_id:454	4.6645331	0.30096229	2.7553684	41.619211	1.3741985	1.3926872	-0.001384737	0.016398426
sim_inspiral:simulation_id:455	2.0599683	-0.69113019	1.8660942	53.247874	1.4130898	1.1879845	0.042263467	0.042074738
sim_inspiral:simulation_id:456	4.488201	-0.17118427	0.43162918	141.34187	1.4422543	1.4234475	0.04273408	-0.030745957
sim_inspiral:simulation_id:457	2.59018	-0.96655086	2.5834143	178.84062	1.3602525	1.3419123	-0.049925123	-0.047370165
sim_inspiral:simulation_id:458	4.3990591	0.85345992	2.8861696	92.692657	1.3881274	1.3313218	-0.00099153728	0.0065421508
sim_inspiral:simulation_id:459	3.6722104	-1.115607	0.75937161	74.305884	1.4849326	1.3446751	-0.023089742	-0.0045022675
sim_inspiral:simulation_id:460	3.2909183	-0.60747996	2.6969727	107.02975	1.3296382	1.3566356	0.034685149	0.031948896
sim_inspiral:simulation_id:461	0.52872229	0.8268285	0.25934013	103.40612	1.5312729	1.2386691	0.041420658	0.0064762365
sim_inspiral:simulation_id:462	1.6785325	0.68776273	2.182789	164.11526	1.3453953	1.4898009	-0.027170781	-0.016731484
sim_inspiral:simulation_id:463	5.7793343	-0.29643655	1.0765723	52.3352	1.3740513	1.2134635	0.032405411	0.048236666
sim_inspiral:simulation_id:464	3.6264963	0.51475557	2.7013569	69.565786	1.4847869	1.0915977	0.016283913	-0.040198251
sim_inspiral:simulation_id:465	4.8963675	-0.14277325	0.62294164	112.07719	1.414341	1.3075983	0.032464303	0.039470811
sim_inspiral:simulation_id:466	5.5916661	0.87936289	2.2543114	108.75056	1.490705	1.3903041	-0.045454081	-0.025629687
sim_inspiral:simulation_id:467	3.5874812	-0.74542771	1.8572171	67.124182	1.2694083	1.253847	0.043465409	0.010902524
sim_inspiral:simulation_id:468	2.9080612	-0.61132676	2.5930386	211.41455	1.481389	1.4162825	0.00256141	-0.028774518
sim_inspiral:simulation_id:469	5.6486194	0.61275117	0.16991901	47.802712	1.4593069	1.3606152	0.00042138073	0.015631066
sim_inspiral:simulation_id:470	3.0211648	0.54605265	2.8034298	195.55714	1.5356661	1.3416967	-0.038747101	-0.0086669152
sim_inspiral:simulation_id:471	3.6575245	-0.35732469	0.75333128	55.515005	1.2611404	1.2954013	-0.024569201	-0.027478423
sim_inspiral:simulation_id:472	5.7721359	-0.51639156	2.6758539	50.804175	1.2540253	1.3864509	0.022627154	-0.00092172564
sim_inspiral:simulation_id:473	3.415001	0.80526201	0.27036584	199.25037	1.397532	1.3970433	-0.022203129	-0.018395415
sim_inspiral:simulation_id:474	5.539035	0.84939473	2.5380015	159.10589	1.3889778	1.2207059	-0.0019575244	0.024450773
sim_inspiral:simulation_id:475	0.61814528	0.31459134	2.7394172	110.5744	1.4418747	1.253447	0.034326114	-0.047747599
sim_inspiral:simulation_id:476	0.15986463	0.55910702	2.4976581	151.83972	1.4101745	1.3278769	0.0081552238	0.02023178
sim_inspiral:simulation_id:477	4.5674608	-0.50670449	0.93651024	128.56691	1.3647787	1.295384	-0.0092081139	-0.022391654
sim_inspiral:simulation_id:478	3.0859733	-0.46076641	0.26674578	199.3725	1.3727831	1.36172	-0.025812548	-0.00029456259
sim_inspiral:simulation_id:479	5.1548924	-0.59397285	0.73683838	138.86679	1.2045515	1.3339408	-0.0070333057	0.03814762
sim_inspiral:simulation_id:480	6.1540524	0.87184559	0.63063593	66.871088	1.5857499	1.421847	-0.038991015	-0.042503772
sim_inspiral:simulation_id:481	4.2269891	0.67228445	2.5302951	191.7563	1.4273258	1.3082322	-0.044283157	0.025385743
sim_inspiral:simulation_id:482	2.574103	1.1340906	0.82665655	67.799801	1.3149967	1.4206165	0.033606083	0.043388172
sim_inspiral:simulation_id:483	4.9180389	0.6956658	2.3512144	78.275589	1.351396	1.4823182	-0.018488018	-0.044275489
sim_inspiral:simulation_id:484	1.7535632	-0.049089607	0.35467439	163.4719	1.4116801	1.5244425	-0.012812896	0.012578159
sim_inspiral:simulation_id:485	4.0076691	1.1784084	0.99362594	142.79338	1.3831575	1.376491	0.024742517	-0.015938915
sim_inspiral:simulation_id:486	5.7895059	-0.41785541	1.2761823	96.743656	1.3595606	1.3428554	-0.043966487	-0.013895828
sim_inspiral:simulation_id:487	2.4346123	0.50665895	1.8400366	133.86076	1.3749953	1.3856022	0.037574244	-0.0055466665
sim_inspiral:simulation_id:488	5.2598108	-0.33584434	2.0512126	47.188116	1.4473198	1.2244106	0.045807744	0.031776924
sim_inspiral:simulation_id:489	0.93447222	1.0587802	1.0964974	110.5895	1.4283515	1.2943654	0.0399628	0.024583711
sim_inspiral:simulation_id:490	5.675372	0.01925758	0.71299189	38.636296	1.4166131	1.2691028	0.048188673	0.021281118
sim_inspiral:simulation_id:491	0.5502727	0.19055456	2.5867189	40.198296	1.400105	1.451462	0.0086983203	-0.04895589
sim_inspiral:simulation_id:492	1.4400462	-0.097741136	1.0742792	124.59761	1.3361751	1.440742	-0.026225416	0.03535887
sim_inspiral:simulation_id:493	5.2281398	-0.96374852	2.6678913	90.152241	1.3310349	1.3210574	0.038965449	-0.039129606
sim_inspiral:simulation_id:494	3.5442015	0.039124788	2.7000369	112.99451	1.3640695	1.4561144	0.015001809	-0.028121044
sim_inspiral:simulation_id:495	6.2354537	0.34687324	0.31829844	199.72218	1.2350204	1.5501775	0.0083526321	0.044223815
sim_inspiral:simulation_id:496	0.54763959	0.58981945	0.77564995	165.68361	1.4337109	1.3186691	-0.035759518	-0.0097655946
sim_inspiral:simulation_id:497	5.1105058	0.34465469	0.96243799	87.407534	1.2349103	1.3511383	-0.0034139597	-0.018390226
sim_inspiral:simulation_id:498	4.7189172	-0.68847793	0.82668478	140.81604	1.4132453	1.2911784	-0.022087509	0.042023716
sim_inspiral:simulation_id:499	2.5788968	-0.60778875	0.44572004	164.7341	1.3019845	1.3744803	0.0034928684	-0.038535682
sim_inspiral:simulation_id:500	0.10171753	0.63189775	1.7454709	102.29943	1.4007111	1.3494967	0.0062958358	0.046447836
sim_inspiral:simulation_id:501	0.18972754	-0.50511304	0.49488277	100.62614	1.3078629	1.3678902	-0.038163303	-0.032150222
sim_inspiral:simulation_id:502	2.4090722	0.41752452	1.2757767	98.707248	1.3694583	1.39309	0.016896104	0.0037008955
sim_inspiral:simulation_id:503	5.5597886	0.22999685	2.9180458	158.63256	1.2374729	1.4742814	-0.011903015	-0.0022919005
sim_inspiral:simulation_id:504	5.2012668	0.31419229	0.27215645	146.25443	1.2769481	1.419017	0.044635277	0.045780514
sim_inspiral:simulation_id:505	0.33971134	-0.063139114	2.2123299	128.88649	1.347216	1.3281608	-0.033995251	0.014327272
sim_inspiral:simulation_id:506	4.585027	-1.1171638	0.48567826	102.1779	1.3663786	1.4409986	-0.022246168	-0.020639135
sim_inspiral:simulation_id:507	3.8734165	0.56442256	0.44746973	145.342	1.3520517	1.3322654	0.047851629	-0.011776044
sim_inspiral:simulation_id:508	3.3263945	-1.2404502	2.8251303	97.353602	1.2301975	1.4429235	0.025104617	0.0096925548
sim_inspiral:simulation_id:509	4.4863364	-0.74435445	2.2423452	129.64436	1.348425	1.4187429	0.013592221	-0.008356506
sim_inspiral:simulation_id:510	1.3574887	0.45674181	2.5995582	198.83023	1.445171	1.2637471	-0.025082753	0.046914191
sim_inspiral:simulation_id:511	2.082779	0.27835339	0.23673072	160.23219	1.2684409	1.2900751	-0.025181501	-0.012813277
sim_inspiral:simulation_id:512	0.7256714	0.21251066	0.66048762	101.15884	1.3967774	1.388145	-0.01102539	0.029744162
sim_inspiral:simulation_id:513	3.2803169	1.1635605	2.2337918	58.641284	1.3313321	1.4644019	0.020947125	-0.026889652
sim_inspiral:simulation_id:514	3.0601325	0.7267424	0.93030697	57.331958	1.2162824	1.1661672	-0.038655158	-0.02195489
sim_inspiral:simulation_id:515	1.6883999	-1.0665129	1.1434561	35.059891	1.3346611	1.4456549	-0.00051394293	0.03964496
sim_inspiral:simulation_id:516	4.2723147	-0.4209703	2.6541048	192.3982	1.3560866	1.4195226	-0.028278713	0.014618257
sim_inspiral:simulation_id:517	5.2662901	1.0195802	2.1107664	42.414725	1.2446924	1.3548552	0.041412943	0.00010498014
sim_inspiral:simulation_id:518	5.6999507	0.47312753	0.57658137	176.60522	1.4886943	1.3851182	-0.044555384	0.043530729
sim_inspiral:simulation_id:519	3.5143124	1.382021	2.6959404	137.63409	1.2555304	1.3861285	0.047052963	-0.017416965
sim_inspiral:simulation_id:520	4.9878114	0.69731095	0.447389	135.48667	1.2888659	1.3913118	-0.013177021	-0.022641993
sim_inspiral:simulation_id:521	0.7737401	-0.49836249	0.4886731	34.075861	1.2812636	1.3149939	-0.015696687	-0.0084777698
sim_inspiral:simulation_id:522	2.6642741	-0.37059776	0.4361253	62.817404	1.3523341	1.4175429	0.027360702	0.0076071231
sim_inspiral:simulation_id:523	6.2502356	-0.58192687	2.7391579	65.45091	1.4484715	1.0478563	-0.015614968	0.036253858
sim_inspiral:simulation_id:524	1.471862	1.3546359	0.74722331	66.3071	1.2232213	1.3476311	-0.036840561	0.026924694
sim_inspiral:simulation_id:525	2.310507	0.53962359	2.3630758	124.48297	1.4309854	1.3003343	-0.030404493	-0.049313305
sim_inspiral:simulation_id:526	3.3464404	0.10044473	0.12481348	124.85851	1.4636658	1.3616529	-0.010078967	-0.021042461
sim_inspiral:simulation_id:527	0.72464477	-1.1685473	0.13084959	76.069588	1.3516006	1.3107461	0.0069413632	-0.0037574391
sim_inspiral:simulation_id:528	4.9154097	0.87630698	0.28801371	98.981362	1.3638615	1.5196399	-0.01833811	-0.045564629
sim_inspiral:simulation_id:529	0.070425742	0.4173322	1.265469	94.155553	1.2576357	1.2568953	0.0014704882	0.03634595
sim_inspiral:simulation_id:530	2.3314334	-0.46219217	0.77178815	71.283925	1.4126207	1.4649084	0.021730296	-0.026291097
sim_inspiral:simulation_id:531	1.9721928	0.8473382	2.9526182	109.17507	1.3093722	1.3891158	0.0067763322	0.036968918
sim_inspiral:simulation_id:532	4.4098723	0.22411437	0.29556492	135.71422	1.4201583	1.4726548	-4.1479542e-05	0.046129154
sim_inspiral:simulation_id:533	4.2785682	1.1541449	2.4660858	151.11627	1.4842812	1.2681635	-0.048954202	0.0091660354
sim_inspiral:simulation_id:534	2.8487493	-0.80589265	0.59215688	141.88206	1.2932429	1.4195254	0.012201545	0.034252697
sim_inspiral:simulation_id:535	0.67172158	-0.39348274	2.8203822	168.22898	1.305239	1.1786682	-0.043179273	0.022341207
sim_inspiral:simulation_id:536	1.3671443	-1.0342301	1.1065802	57.600659	1.4690118	1.2307569	-0.032495586	-0.042879338
sim_inspiral:simulation_id:537	0.72413177	0.77010424	0.6067365	97.969474	1.3379237	1.2918801	-0.030047735	0.048419729
sim_inspiral:simulation_id:538	3.2492931	0.59450762	2.4953853	137.52247	1.4323458	1.4446759	-0.019331331	0.029623588
sim_inspiral:simulation_id:539	1.2559818	-0.16292546	0.28981077	88.813364	1.2605613	1.4075198	0.038380454	-0.012178095
sim_inspiral:simulation_id:540	3.857563	-0.61203331	2.3180078	119.28141	1.5490731	1.472176	-0.033147091	0.028851839
sim_inspiral:simulation_id:541	4.6934567	0.61394408	2.5752846	228.07409	1.4545122	1.3503225	0.039781197	-0.025331063
sim_inspiral:simulation_id:542	4.2143481	-0.56142964	1.1087377	54.688564	1.359028	1.5291402	0.037717743	-0.010180964
sim_inspiral:simulation_id:543	6.2677951	-0.60863045	0.025903243	40.42259	1.3531935	1.3607933	-0.016866878	-0.010981403
sim_inspiral:simulation_id:544	4.0192605	-0.50822549	0.30132701	170.68296	1.3543683	1.438245	-0.023828762	-0.026805352
sim_inspiral:simulation_id:545	6.0205526	0.27029715	2.3439962	88.569343	1.3342922	1.1933136	0.024977597	0.035303351
sim_inspiral:simulation_id:546	1.7086773	-1.3248908	2.1837958	121.78616	1.4295093	1.4150397	-0.049838143	0.035148537
sim_inspiral:simulation_id:547	2.1477726	1.2547698	2.0174368	86.330423	1.5330451	1.3514306	0.033570851	-0.041064058
sim_inspiral:simulation_id:548	4.4502071	0.72117936	3.0340704	184.23405	1.2650758	1.2375107	0.018764841	-0.044708987
sim_inspiral:simulation_id:549	1.0538697	-0.62418472	0.52649977	201.51038	1.4223324	1.3973004	-0.041282589	-0.03092516
sim_inspiral:simulation_id:550	3.5209461	0.093193359	1.1866155	38.431733	1.3770042	1.4161833	-0.029649741	-0.0041641396
sim_inspiral:simulation_id:551	3.1933124	-1.080366	2.7929131	77.926416	1.5072648	1.2890146	-0.037294903	-0.029052034
sim_inspiral:simulation_id:552	2.8045299	0.81218215	0.5996286	125.19724	1.4146353	1.4899969	-0.037367838	0.036706678
sim_inspiral:simulation_id:553	3.214663	-0.12047639	0.3644003	239.66979	1.5093944	1.3697324	0.02966333	-0.012555386
sim_inspiral:simulation_id:554	4.7693008	1.2123631	2.7410578	194.98243	1.3920065	1.2314289	-0.04479513	0.0018256571
sim_inspiral:simulation_id:555	4.6653266	-0.69625346	0.92260738	138.99492	1.4241681	1.4608685	-0.0020282889	-0.020656002
sim_inspiral:simulation_id:556	5.1962235	-0.85897604	1.3113172	116.07049	1.3468967	1.4428234	-0.033208482	-0.035318214
sim_inspiral:simulation_id:557	1.6312651	0.1860821	0.89624429	82.129649	1.3372461	1.2538288	0.041492808	-0.011788474
sim_inspiral:simulation_id:558	3.1963787	-0.50012272	2.5697574	205.51145	1.3532007	1.4704959	-0.0070287412	0.012235713
sim_inspiral:simulation_id:559	4.8833848	0.27992334	2.3323567	127.45405	1.4225988	1.384448	-0.018234177	-0.0032113159
sim_inspiral:simulation_id:560	1.1254624	-0.96195636	2.5335233	115.13853	1.2860316	1.4137718	0.0024602618	-0.048416941
sim_inspiral:simulation_id:561	0.75453338	0.61854891	1.8049441	113.36747	1.5004009	1.4082066	-0.031389208	0.025981838
sim_inspiral:simulation_id:562	3.710463	0.46600245	0.40038295	192.62398	1.3996532	1.1594608	-0.016092114	0.031601414
sim_inspiral:simulation_id:563	0.029565727	-0.24651193	2.477341	70.137089	1.3958059	1.3792745	-0.048540021	-0.045904218
sim_inspiral:simulation_id:564	0.75807107	-0.94399025	2.1395917	139.71089	1.4870461	1.4447485	0.016625573	0.042708477
sim_inspiral:simulation_id:565	3.5185028	-1.108905	0.99182729	134.08701	1.4428009	1.4184761	-0.0097544835	-0.036376043
sim_inspiral:simulation_id:566	5.2263376	-0.43664035	2.4158759	53.801631	1.5513568	1.2826939	-0.016013727	-0.0077821296
sim_inspiral:simulation_id:567	2.76188	-0.17767775	3.0548835	178.47436	1.2312723	1.5224428	-0.043295977	0.0307301
sim_inspiral:simulation_id:568	3.8911495	0.91668013	2.8045963	237.92799	1.4228878	1.5868901	-0.046367827	-0.0096546351
sim_inspiral:simulation_id:569	0.74471127	0.61159826	2.6151189	174.73704	1.3686524	1.433855	0.04545306	-0.0034896959
sim_inspiral:simulation_id:570	3.5728121	1.0159454	0.59396046	45.298865	1.319579	1.2665099	0.034670935	-0.026194752
sim_inspiral:simulation_id:571	5.0681551	-0.31538854	1.8720835	45.73914	1.2064188	1.3926612	0.041990188	-0.020557562
sim_inspiral:simulation_id:572	1.8463552	0.53017948	2.2021141	143.50633	1.277568	1.2878341	0.029002687	-0.033551233
sim_inspiral:simulation_id:573	4.5813687	-0.90920907	1.8727323	81.159206	1.2927886	1.308989	-0.0012545666	0.011830722
sim_inspiral:simulation_id:574	3.1507461	0.92731746	0.14312974	123.91878	1.3766789	1.34181	0.011078329	0.011646735
sim_inspiral:simulation_id:575	0.88095763	0.26110546	0.81821111	96.403894	1.3524524	1.4445601	0.00060946153	0.044763902
sim_inspiral:simulation_id:576	5.1858595	1.0295265	2.1293873	120.20109	1.4270178	1.3831931	-0.0070540908	0.00067858613
sim_inspiral:simulation_id:577	0.99044678	0.98641181	1.5618187	88.914464	1.3359896	1.3564551	-0.020392804	-0.022390136
sim_inspiral:simulation_id:578	2.9480317	0.24854907	2.4312653	147.60772	1.6391475	1.2926913	-0.037996852	0.041826412
sim_inspiral:simulation_id:579	5.0934718	0.49010784	0.53553071	185.57229	1.4280982	1.4576547	0.0058763645	0.048478632
sim_inspiral:simulation_id:580	2.0199634	-0.37908523	0.833943	49.803421	1.3339794	1.3625055	0.021466239	0.011730858
sim_inspiral:simulation_id:581	1.6695301	0.61493189	2.5448034	132.22112	1.3604552	1.2535989	0.0012599592	0.036804446
sim_inspiral:simulation_id:582	2.8190906	-0.84946251	2.3399014	73.521621	1.3535072	1.3092105	0.028703146	0.047528712
sim_inspiral:simulation_id:583	5.5743875	-0.57765686	0.92152696	150.15091	1.4841796	1.4907297	-0.02911645	-0.047328869
sim_inspiral:simulation_id:584	0.74264623	-0.75228365	0.75276774	116.19191	1.3035575	1.2656774	0.046657787	-0.0057589075
sim_inspiral:simulation_id:585	1.3787522	-0.65192455	1.0252207	76.774978	1.5503592	1.3865536	0.025237364	-0.031119757
sim_inspiral:simulation_id:586	1.843299	0.56925312	1.6881272	63.180512	1.2309181	1.4413256	-0.048212947	0.035979318
sim_inspiral:simulation_id:587	2.4947781	0.66097041	0.78810765	46.242328	1.4949987	1.3356973	0.032448957	-0.028837986
sim_inspiral:simulation_id:588	3.159944	-0.13635973	3.0688865	136.18507	1.3678446	1.4209435	0.037398482	-0.0097528084
sim_inspiral:simulation_id:589	0.51509318	-0.22278482	0.95322402	82.183034	1.3794245	1.3326714	0.0033604418	-0.035423774
sim_inspiral:simulation_id:590	3.2089789	0.048455371	0.40403448	193.31489	1.5034289	1.3894007	0.044934744	0.042622439
sim_inspiral:simulation_id:591	1.5899375	-1.116695	0.32857864	107.45739	1.5268756	1.4889459	-0.037276403	0.0011670274
sim_inspiral:simulation_id:592	0.88791347	-0.15989781	1.5012849	53.817389	1.3736797	1.3899742	-0.038733073	0.031268257
sim_inspiral:simulation_id:593	2.697696	0.99609172	1.3740664	89.800355	1.393334	1.450549	-0.045114163	-0.01589275
sim_inspiral:simulation_id:594	4.8706428	-0.26403875	0.39162258	129.38917	1.3026591	1.43919	-0.041446553	-0.045983183
sim_inspiral:simulation_id:595	0.38677077	0.32961278	0.60233736	93.994208	1.404415	1.2646781	0.035216703	-0.017380944
sim_inspiral:simulation_id:596	2.3780327	-0.2695123	1.2644507	58.938204	1.3734196	1.3740943	-0.016124961	0.038504918
sim_inspiral:simulation_id:597	2.0964067	-0.41595429	1.0058	99.746107	1.5380853	1.3552611	0.019604902	0.0039202108
sim_inspiral:simulation_id:598	5.2446152	-0.34986361	0.41187056	205.60574	1.2928666	1.5812822	-0.032955875	0.033797239
sim_inspiral:simulation_id:599	0.27557239	0.88972906	1.3380078	86.506197	1.4822751	1.3638793	-0.0066970063	0.03267193
sim_inspiral:simulation_id:600	0.99430185	-1.3724816	0.51803135	125.75339	1.2405924	1.3502368	-0.048515413	0.013791574
sim_inspiral:simulation_id:601	5.8388964	-0.18737503	1.148496	102.68938	1.5173726	1.2934386	-0.011019951	0.042036285
sim_inspiral:simulation_id:602	1.5197241	-0.10405441	0.55932896	123.81812	1.1681506	1.4655985	-0.046858985	-0.0022075104
sim_inspiral:simulation_id:603	2.4450114	-0.081823161	2.0698988	44.721061	1.4875016	1.2652117	-0.029111353	-0.03662893
sim_inspiral:simulation_id:604	4.3536192	-0.69999625	0.79646994	133.4727	1.3492345	1.2417227	-0.02845261	0.03706385
sim_inspiral:simulation_id:605	1.4161716	-0.14731392	2.3307489	105.33022	1.4627065	1.3593424	-0.034153623	0.028783103
sim_inspiral:simulation_id:606	2.3559949	-0.31791732	0.79044058	153.36701	1.2983172	1.3395162	-0.037537804	-0.010300987
sim_inspiral:simulation_id:607	1.5320805	-0.078311312	2.1385921	98.130163	1.3508216	1.3388429	-0.023126445	0.016138607
sim_inspiral:simulation_id:608	3.9191648	-0.57931042	0.26568035	186.15052	1.5113242	1.3846029	0.045367006	0.020851308
sim_inspiral:simulation_id:609	5.0607564	-0.3810357	1.9951992	69.966223	1.3078822	1.3150226	-0.016107129	0.049259651
sim_inspiral:simulation_id:610	4.5703139	0.6262474	2.3142276	39.553196	1.4377285	1.3805242	0.041124174	-0.003765705
sim_inspiral:simulation_id:611	4.4955457	-0.36104573	2.2740398	84.404197	1.3799363	1.3674027	-0.048098162	-0.044056267
sim_inspiral:simulation_id:612	5.5412808	-0.38958072	2.1721345	123.99701	1.2270314	1.3629947	0.001660462	-0.038495636
sim_inspiral:simulation_id:613	5.6319049	0.54115324	0.29880488	163.17484	1.4137977	1.3289727	-0.0093443127	0.026070575
sim_inspiral:simulation_id:614	3.4949227	1.1460226	2.6934541	174.05103	1.4774768	1.3519203	-0.0016652502	0.015513174
sim_inspiral:simulation_id:615	6.1110541	-0.85263398	2.524704	120.45134	1.3771768	1.3357789	0.036715592	0.036573835
sim_inspiral:simulation_id:616	2.0515498	0.59983377	2.5596651	120.29214	1.4162378	1.5344544	-0.037730369	0.026563019
sim_inspiral:simulation_id:617	0.64178107	0.14035711	0.95715445	108.85277	1.3449421	1.4097804	0.034236073	0.037827307
sim_inspiral:simulation_id:618	0.055115755	0.68744747	2.0793928	29.66717	1.3929447	1.3753594	-0.0089438331	0.031048926
sim_inspiral:simulation_id:619	4.4703291	-0.67325669	0.022123906	95.796977	1.2488994	1.2986869	-0.027189155	-0.0078138688
sim_inspiral:simulation_id:620	0.14265271	0.6635669	2.8574364	136.92032	1.5585256	1.4720798	-0.0055674442	0.022949661
sim_inspiral:simulation_id:621	2.9803852	0.64774501	2.5890034	187.71972	1.4200201	1.4910467	0.00055045915	-0.0051750245
sim_inspiral:simulation_id:622	0.50671441	-1.0735443	0.56064688	71.533536	1.2921829	1.2906967	-0.028016618	0.036024139
sim_inspiral:simulation_id:623	0.26610471	0.38404806	0.30855072	98.986542	1.3564236	1.2380503	0.011310614	-0.0057770752
sim_inspiral:simulation_id:624	5.8365133	-0.018225524	2.2047074	49.818905	1.3088034	1.2817753	-0.025023704	-0.0081775388
sim_inspiral:simulation_id:625	2.8301922	-1.0413809	0.69571902	87.463651	1.3712639	1.1822244	0.020903066	0.030353839
sim_inspiral:simulation_id:626	2.5842543	0.9815872	0.86952389	101.08565	1.4047938	1.2597567	-0.02122903	-0.019811271
sim_inspiral:simulation_id:627	3.4185526	0.12255573	2.1212495	55.348781	1.5698672	1.3953466	0.031089196	0.02019438
sim_inspiral:simulation_id:628	2.5028756	-0.82843867	2.8277667	113.16136	1.5642701	1.4027336	-0.027943323	-0.031341312
sim_inspiral:simulation_id:629	1.0223331	-0.52586905	1.254713	106.29918	1.4049785	1.2387727	0.0091503859	0.016372854
sim_inspiral:simulation_id:630	0.0026512411	-1.2507167	1.1002161	56.503671	1.3992156	1.2296917	-0.042545378	0.020200946
sim_inspiral:simulation_id:631	1.5766209	1.096361	1.9612258	109.20037	1.421213	1.3319049	-0.00799908	-0.042250042
sim_inspiral:simulation_id:632	2.6376073	-0.047029883	1.888497	103.98649	1.3235733	1.3931193	0.032160788	0.022052319
sim_inspiral:simulation_id:633	0.3913501	-1.4189045	0.61479156	124.21545	1.4557337	1.4313627	0.0095343638	-0.017025093
sim_inspiral:simulation_id:634	1.0744905	-0.55620141	0.89181634	59.358555	1.3252225	1.2432772	-0.045752118	-0.035438251
sim_inspiral:simulation_id:635	0.18309209	0.26816218	2.4175123	67.563855	1.3168626	1.2825476	0.044239031	0.048249433
sim_inspiral:simulation_id:636	0.60851183	-0.73003357	0.87819802	94.580252	1.2399291	1.4313025	0.00063873588	0.022960038
sim_inspiral:simulation_id:637	3.1284041	-0.61969087	2.0160846	77.153885	1.4349537	1.4266444	0.012385404	-0.044649483
sim_inspiral:simulation_id:638	2.3984927	1.0604574	2.9415818	35.129221	1.3034856	1.3137227	0.035670115	-0.0032847537
sim_inspiral:simulation_id:639	3.3002886	0.61494146	2.4869223	175.79464	1.4113351	1.4428254	-0.038623078	0.011397559
sim_inspiral:simulation_id:640	5.3933079	-1.3861628	2.4902615	107.28072	1.325544	1.0904212	-0.030583186	-0.0074078527
sim_inspiral:simulation_id:641	1.174118	-0.3525258	0.49496015	201.44247	1.3810255	1.6122394	-0.0056183148	-0.016811024
sim_inspiral:simulation_id:642	3.5673709	-0.56457933	0.51262304	149.65265	1.3925152	1.3746293	-0.031319408	0.014919253
sim_inspiral:simulation_id:643	4.0593831	-1.3542824	0.31615264	141.01232	1.3334503	1.3735735	-0.044100362	0.035404338
sim_inspiral:simulation_id:644	2.9924445	0.45900411	2.4671188	159.33427	1.3011503	1.3362853	-0.00058745187	0.007565007
sim_inspiral:simulation_id:645	1.2042904	0.27781808	2.0041002	101.33298	1.5769337	1.3016508	0.048448958	-0.022593075
sim_inspiral:simulation_id:646	4.3839519	0.25946301	0.77409984	144.39334	1.3429615	1.382666	-0.02504661	0.039684267
sim_inspiral:simulation_id:647	0.5717628	-1.1961761	0.98433276	107.94871	1.3491228	1.252543	0.03829495	-0.014234745
sim_inspiral:simulation_id:648	3.814997	0.28157093	0.62979763	111.42758	1.4511216	1.3200691	0.039281718	0.041850875
sim_inspiral:simulation_id:649	0.27393831	-0.58725757	2.94961	102.0915	1.3187407	1.3078934	0.03765299	-0.02890802
sim_inspiral:simulation_id:650	2.4499003	-0.48691139	2.4157833	125.54107	1.3771944	1.4390837	0.012525638	0.010281868
sim_inspiral:simulation_id:651	3.0675239	0.43776943	2.1303911	48.992745	1.317491	1.2274917	0.041949411	0.022812165
sim_inspiral:simulation_id:652	4.9109336	-0.63795974	3.1067805	165.6231	1.2198755	1.3769938	0.042092017	0.011558307
sim_inspiral:simulation_id:653	0.91318073	-0.40935049	2.6150357	144.28094	1.3124525	1.2249711	-0.023833722	0.033123875
sim_inspiral:simulation_id:654	3.416531	0.92168045	2.4016327	106.76468	1.2149399	1.3262204	-0.0098088519	-0.0061301874
sim_inspiral:simulation_id:655	0.24544405	-0.86668982	0.40343144	243.99888	1.4065191	1.6084921	-0.047923708	-0.0081022189
sim_inspiral:simulation_id:656	3.2752821	-0.56402451	2.4652098	89.108438	1.290797	1.5259643	-0.023585371	-0.0420217
sim_inspiral:simulation_id:657	5.0850673	-0.1657748	1.1780076	101.32718	1.3144601	1.463503	0.004085531	0.030964991
sim_inspiral:simulation_id:658	1.7863801	-0.17109087	0.67893777	89.60592	1.442631	1.4737543	-0.0044611908	-0.013858514
sim_inspiral:simulation_id:659	5.5373306	0.70522342	2.4759887	167.51909	1.4980503	1.374726	-0.011786472	0.037246267
sim_inspiral:simulation_id:660	4.7718895	-0.56161417	1.6882825	86.939925	1.1563667	1.3494243	-0.0058241352	-0.005853286
sim_inspiral:simulation_id:661	0.66560581	0.8492475	0.3375423	145.78191	1.5053959	1.2435926	0.034433547	-0.0091364054
sim_inspiral:simulation_id:662	2.1998676	0.2574149	2.1628841	63.497896	1.4307319	1.3563697	-0.036859303	0.010745692
sim_inspiral:simulation_id:663	0.3414704	0.72941158	2.3604101	27.722716	1.3204671	1.289197	-0.049773027	-0.049519537
sim_inspiral:simulation_id:664	5.3760645	1.2288659	0.55350338	99.007442	1.3126208	1.401892	-0.015437923	0.049319314
sim_inspiral:simulation_id:665	0.40028275	-0.84769635	0.55626934	117.69636	1.3430485	1.1420636	0.015541558	-0.018769155
sim_inspiral:simulation_id:666	1.1866222	0.16084425	1.4977977	82.891193	1.3994894	1.4419303	-0.008479262	0.015777355
sim_inspiral:simulation_id:667	3.674029	0.78249761	0.76711754	86.632981	1.1402656	1.1795074	0.02098099	-0.024946773
sim_inspiral:simulation_id:668	0.56238913	0.59027443	1.2342576	97.80797	1.3421703	1.497197	0.033679158	-0.022284102
sim_inspiral:simulation_id:669	0.33696506	0.75672959	2.9471779	113.18882	1.3371186	1.2702236	-0.033702681	0.015640442
sim_inspiral:simulation_id:670	0.82642929	-1.0805256	2.3252578	71.050822	1.2909757	1.3168404	-0.046911327	0.048242584
sim_inspiral:simulation_id:671	2.2031131	-0.87268846	0.52076755	180.32245	1.2957991	1.3960221	0.0054457984	0.042390143
sim_inspiral:simulation_id:672	5.1746771	0.60996354	2.3421011	99.027596	1.3706177	1.3185202	-0.04810049	0.026155621
sim_inspiral:simulation_id:673	3.5180143	-0.094056581	1.1055645	67.089213	1.27803	1.3079361	-0.0098987619	-0.045056491
sim_inspiral:simulation_id:674	5.1708959	0.13039899	2.2733743	55.593865	1.3172193	1.2502519	-0.017942075	0.0056317066
sim_inspiral:simulation_id:675	2.3427886	1.2277603	2.6693625	41.947807	1.4774263	1.3592133	0.02705132	0.024261295
sim_inspiral:simulation_id:676	2.6053374	-0.79847468	2.7787342	171.32759	1.2504178	1.3325308	-0.031244903	0.0024261267
sim_inspiral:simulation_id:677	0.53527247	-0.31871063	0.16821242	220.06354	1.4278678	1.4893328	0.0023891925	0.013254867
sim_inspiral:simulation_id:678	1.0956354	-1.065258	2.941949	145.93209	1.50126	1.353823	0.033856542	-0.018248321
sim_inspiral:simulation_id:679	3.6347103	1.3688379	0.69848154	49.037744	1.5534432	1.2548153	-0.044362471	-0.021949076
sim_inspiral:simulation_id:680	1.4275774	-0.76027077	2.5088645	74.773241	1.3895909	1.4805599	0.031330534	-0.0079624112
sim_inspiral:simulation_id:681	2.9247736	-0.39931117	2.4741235	128.60829	1.4870566	1.5082201	0.031642478	-0.0046703194
sim_inspiral:simulation_id:682	6.1328182	0.38686968	2.813218	139.37636	1.3556866	1.3485889	0.0022744192	-0.013421548
sim_inspiral:simulation_id:683	3.596831	0.63982512	2.1248823	132.2666	1.3240658	1.3624998	0.0076079555	0.0074329418
sim_inspiral:simulation_id:684	0.36055867	-0.5669297	0.94561324	98.09925	1.3215571	1.4108408	0.041764737	0.047085245
sim_inspiral:simulation_id:685	6.0185351	0.94543564	2.8982137	143.48429	1.4430856	1.48424	-0.018271198	-0.027526602
sim_inspiral:simulation_id:686	5.1200595	-0.1411436	0.87807129	55.520699	1.4008104	1.3174448	0.047022943	-0.035832187
sim_inspiral:simulation_id:687	1.5910287	0.59635444	0.57003076	149.92964	1.4152479	1.3124618	-0.047396157	0.003149218
sim_inspiral:simulation_id:688	2.9070855	0.16804313	0.88204575	106.20597	1.3721961	1.4752685	0.018697464	0.011583871
sim_inspiral:simulation_id:689	3.132262	-0.81413709	2.5068675	167.26769	1.4265595	1.2162356	0.030733823	-0.037027182
sim_inspiral:simulation_id:690	2.6143278	0.63807456	0.25326716	80.103011	1.3484185	1.3483867	0.042315111	0.032226052
sim_inspiral:simulation_id:691	5.1282443	1.2645739	2.8766411	81.141754	1.3756035	1.2418857	-0.0060012911	-0.013017037
sim_inspiral:simulation_id:692	6.1925323	1.2816279	0.48381257	57.693158	1.3377044	1.2136252	0.0043638893	-0.049615937
sim_inspiral:simulation_id:693	4.6780288	0.53255776	0.46496138	144.49007	1.1798998	1.3892929	0.017320951	-0.021550679
sim_inspiral:simulation_id:694	4.6332669	0.58571859	1.0502697	145.0746	1.2795525	1.440542	-0.043710737	0.048074006
sim_inspiral:simulation_id:695	0.71930478	-0.3328669	0.38768375	230.74349	1.431355	1.4096046	-0.0057964038	-0.04210182
sim_inspiral:simulation_id:696	3.1457805	-0.98355046	0.28927189	244.61388	1.3513528	1.464274	-0.0019842233	0.022744014
sim_inspiral:simulation_id:697	2.0082609	-0.12240467	1.5542224	50.452616	1.4830953	1.3054786	-0.0384995	-0.0026247264
sim_inspiral:simulation_id:698	2.906873	-0.47297377	2.888434	204.4316	1.4966709	1.4503612	0.022985384	0.013980053
sim_inspiral:simulation_id:699	5.1844389	0.33537413	0.32455757	139.0998	1.429334	1.554269	0.035363797	-0.035329544
sim_inspiral:simulation_id:700	4.4361582	-0.12859952	0.35294838	133.2297	1.2359821	1.2958838	0.027794348	0.0058044149
sim_inspiral:simulation_id:701	0.66621574	-0.69438383	2.4109284	49.403361	1.2362379	1.422859	-0.010260628	0.0043566812
sim_inspiral:simulation_id:702	5.4202641	-0.43880864	0.91709719	122.60928	1.386309	1.4052388	-0.025270817	-0.048332488
sim_inspiral:simulation_id:703	6.0158911	-0.71179182	2.5299212	93.502286	1.418691	1.3573453	0.0092954115	0.019119506
sim_inspiral:simulation_id:704	6.2035438	0.7863881	2.6332401	166.30199	1.5652582	1.4699637	-0.00074937873	-0.03008074
sim_inspiral:simulation_id:705	4.0155173	0.55381062	2.7029501	135.8372	1.5151159	1.2205372	-0.044619214	-0.036031649
sim_inspiral:simulation_id:706	3.8586936	0.20683168	3.0350712	106.98354	1.4208649	1.5041732	-0.022321422	0.013718894
sim_inspiral:simulation_id:707	1.5777307	1.1422014	0.76623887	29.371338	1.3187108	1.1929725	0.0016566699	0.013754475
sim_inspiral:simulation_id:708	5.3435478	0.0063933785	2.8211476	100.53302	1.3538865	1.3840586	0.030398872	-0.033866741
sim_inspiral:simulation_id:709	6.0283823	-0.65773676	2.4623686	172.94674	1.2886709	1.5227575	0.0024894477	0.013536623
sim_inspiral:simulation_id:710	0.65332028	-1.1277673	0.76716441	153.68961	1.3750408	1.5565481	-0.011352483	-0.0099095652
sim_inspiral:simulation_id:711	4.7629085	1.1605393	2.5290968	47.125188	1.352334	1.2807877	0.040120658	-0.044384063
sim_inspiral:simulation_id:712	4.9912754	1.1069728	2.6931627	55.448541	1.2846671	1.1826145	0.01274807	-0.022123416
sim_inspiral:simulation_id:713	2.0163136	0.91249409	2.1952074	165.16556	1.4641713	1.5301291	-0.045324199	0.022985429
sim_inspiral:simulation_id:714	3.1937239	-0.78252221	0.15125077	135.5226	1.2858674	1.2823593	-0.025991924	0.009029223
sim_inspiral:simulation_id:715	2.8601346	-1.2508019	1.2635976	60.83478	1.3791737	1.3167234	0.039215804	0.044746779
sim_inspiral:simulation_id:716	2.9582485	0.18628735	0.64643129	132.22452	1.3113021	1.2832012	0.02373055	-0.01035359
sim_inspiral:simulation_id:717	0.64393773	0.78247623	0.28661373	180.69075	1.2557639	1.4067906	0.0071387848	0.003283407
sim_inspiral:simulation_id:718	3.9398843	1.3897213	0.45410876	78.40267	1.495324	1.4449999	-0.037987694	-0.01041353
sim_inspiral:simulation_id:719	2.7176777	0.56632721	2.3560566	133.31452	1.3738221	1.4083455	-0.037929059	-0.0090211799
sim_inspiral:simulation_id:720	1.8139011	0.74574995	0.52599868	81.084145	1.1678548	1.5583394	-0.007502591	-0.020009981
sim_inspiral:simulation_id:721	1.9989121	0.5137769	1.0797628	119.08339	1.3127699	1.5277928	-0.048242178	0.0099670895
sim_inspiral:simulation_id:722	5.6895483	0.19591139	2.623258	95.311052	1.2534042	1.3801257	0.036648198	-0.024574494
sim_inspiral:simulation_id:723	3.1542021	-0.87020554	2.1269164	73.176691	1.3007934	1.4654857	0.023675781	-0.018475964
sim_inspiral:simulation_id:724	0.27175529	-0.27854523	1.9242568	65.749646	1.3785148	1.2613383	0.037255167	0.046038572
sim_inspiral:simulation_id:725	0.15819339	-0.75846779	3.0619964	142.10929	1.2993885	1.3714918	-0.0044548086	-0.026351974
sim_inspiral:simulation_id:726	0.86810684	-0.65943549	0.92257999	114.70052	1.2979255	1.2752335	-0.0085307517	-0.021736094
sim_inspiral:simulation_id:727	5.198677	0.19412015	1.2409626	59.059584	1.3837764	1.4121462	0.036683091	0.047071417
sim_inspiral:simulation_id:728	4.7052955	-0.50834354	0.69531553	125.30863	1.4554326	1.3358936	-0.018500102	-0.034753046
sim_inspiral:simulation_id:729	3.3342687	-0.13889314	2.3762219	179.30145	1.3840254	1.3402754	-0.028145561	-0.013617234
sim_inspiral:simulation_id:730	4.3102388	-0.47510201	0.21666062	218.11224	1.4629285	1.609944	-0.040240146	-0.014502803
sim_inspiral:simulation_id:731	5.5067304	0.23063327	1.1294001	51.925837	1.2498586	1.4290571	-0.0091461014	-0.038547516
sim_inspiral:simulation_id:732	5.7442376	-1.4058328	0.19508378	107.30071	1.2565218	1.424077	-0.015084799	-0.031484323
sim_inspiral:simulation_id:733	0.4607021	0.7236478	2.7145474	158.68039	1.3788607	1.4645864	0.019155273	0.023831244
sim_inspiral:simulation_id:734	0.50832289	0.77691186	0.71671092	96.322317	1.5535131	1.3527849	0.021743969	-0.017807734
sim_inspiral:simulation_id:735	5.7078685	0.48466324	2.4387261	136.97688	1.1912141	1.4690582	0.034405936	0.0031127299
sim_inspiral:simulation_id:736	4.2107518	0.30634974	2.1053616	113.67437	1.381553	1.545093	-0.0081739066	-0.0037055612
sim_inspiral:simulation_id:737	3.2034503	0.66071894	2.0373814	128.47158	1.5229126	1.3960107	-0.0044843152	0.027863013
sim_inspiral:simulation_id:738	3.5924423	1.056813	0.7979928	187.01388	1.3958274	1.3948227	-0.0020026967	0.0037553749
sim_inspiral:simulation_id:739	3.8358296	-1.180088	0.68138765	112.62114	1.375766	1.4433285	-0.017631432	0.031968186
sim_inspiral:simulation_id:740	2.7575831	-0.35560628	2.185192	72.474874	1.3787098	1.327189	0.012905616	-0.022150974
sim_inspiral:simulation_id:741	3.5703543	-0.38890501	2.6072326	145.30091	1.3595164	1.2830439	0.00037419352	-0.038604528
sim_inspiral:simulation_id:742	2.6106578	0.24965442	3.0834936	119.49223	1.4105112	1.4242502	-0.046766953	0.010321443
sim_inspiral:simulation_id:743	0.064983135	0.69900714	0.82093968	81.800551	1.0937081	1.2974213	0.011736384	-0.015010496
sim_inspiral:simulation_id:744	3.0372301	0.9761047	1.1993285	61.306865	1.3395818	1.3436753	0.012603498	-0.0068201872
sim_inspiral:simulation_id:745	6.1134846	0.93007995	2.2990272	40.672268	1.2793138	1.3602242	-0.033437279	-0.0024377322
sim_inspiral:simulation_id:746	2.5049469	-0.20775709	0.56102881	155.12141	1.3015673	1.385698	-0.025541291	-0.036970096
sim_inspiral:simulation_id:747	2.6516151	-0.56052962	0.60474197	104.17785	1.4947971	1.3692183	-0.039148973	0.010339265
sim_inspiral:simulation_id:748	1.6178037	-0.10116114	2.2659338	87.2129	1.4278877	1.3921368	-0.01456774	-0.0041884593
sim_inspiral:simulation_id:749	1.0270047	0.34458866	2.1187713	39.33574	1.3477963	1.3834712	0.03028975	-0.029362974
sim_inspiral:simulation_id:750	1.3768454	1.3809412	0.98776414	126.75115	1.309505	1.3222848	-0.010668618	0.037670091
sim_inspiral:simulation_id:751	6.0860623	-1.1054765	0.8191547	84.424342	1.4322406	1.3882833	-0.026098736	0.025803929
sim_inspiral:simulation_id:752	0.030875556	0.87708837	2.3422827	133.39983	1.446479	1.2983938	-0.03530774	0.044461492
sim_inspiral:simulation_id:753	6.1180697	-0.1780694	2.9358679	76.183186	1.3682844	1.344039	-0.0026010525	0.04793236
sim_inspiral:simulation_id:754	1.1528383	-0.53589239	0.45036077	221.90863	1.3654747	1.4099966	0.030519747	-0.0095959494
sim_inspiral:simulation_id:755	5.8723874	-0.27506881	0.37620134	153.2148	1.3360348	1.3073656	-0.028646435	0.0016688746
sim_inspiral:simulation_id:756	3.9972485	1.2462398	2.8562332	110.92919	1.396514	1.4172613	0.041239896	-0.037842798
sim_inspiral:simulation_id:757	1.4027637	0.45260461	1.9745776	79.534827	1.4275022	1.3982467	0.0085129437	0.017533424
sim_inspiral:simulation_id:758	1.4912493	-0.68282877	2.5555206	73.693297	1.4269271	1.4092614	-0.046415933	0.020037606
sim_inspiral:simulation_id:759	1.2498887	-0.52070637	2.9609346	174.39806	1.3463741	1.4732717	-0.035717484	-0.0082796098
sim_inspiral:simulation_id:760	5.2399536	0.15695569	0.298892	104.26692	1.2042249	1.3293215	0.025176783	0.039815511
sim_inspiral:simulation_id:761	4.0206077	-0.95658281	2.280815	104.08093	1.1878374	1.3648331	0.0027921354	-0.022313245
sim_inspiral:simulation_id:762	5.0361176	0.48166424	0.7878141	79.237253	1.2986041	1.200017	-0.018943482	-0.0045184313
sim_inspiral:simulation_id:763	1.9083133	-0.14302581	0.42813593	75.270833	1.4417497	1.3743499	-0.014618074	0.02303018
sim_inspiral:simulation_id:764	2.7623206	-0.31762386	2.3422328	145.55169	1.2518511	1.217495	-0.028592597	-0.01064031
sim_inspiral:simulation_id:765	1.9811562	-0.088180771	2.7221961	100.77432	1.3730276	1.2170432	0.018197861	-0.015169774
sim_inspiral:simulation_id:766	0.062141997	-0.51901196	2.3712971	170.64695	1.2713386	1.2490645	-0.0011858025	0.015633275
sim_inspiral:simulation_id:767	2.5061904	-0.68082518	2.2407216	133.27299	1.439259	1.3177102	0.00088168108	-0.0087982289
sim_inspiral:simulation_id:768	4.0716847	1.4727338	2.622309	118.14458	1.2624885	1.3335355	0.018200102	0.037821032
sim_inspiral:simulation_id:769	1.8922234	-1.4084266	2.7774784	110.30594	1.4209009	1.354579	0.020671917	0.033585775
sim_inspiral:simulation_id:770	4.3618742	-0.73468781	0.36602733	105.3095	1.4051109	1.4714344	-0.030514387	0.014450754
sim_inspiral:simulation_id:771	1.6450695	1.432143	0.19303825	130.70272	1.4337071	1.4049668	-0.0083861012	0.035299721
sim_inspiral:simulation_id:772	1.0647974	-0.6924907	0.58260826	175.66696	1.3899904	1.4473406	0.02585364	-0.020412289
sim_inspiral:simulation_id:773	3.3667023	-1.2114187	1.8349827	47.443244	1.2468286	1.2098136	-0.011408136	-0.033297206
sim_inspiral:simulation_id:774	6.2320741	1.1683573	2.2831189	117.71125	1.3715878	1.3966675	-0.013661437	-0.003465122
sim_inspiral:simulation_id:775	4.2296303	1.2495804	2.3212017	71.948925	1.2529966	1.4793722	-0.037283663	0.028888389
sim_inspiral:simulation_id:776	1.658529	0.4704322	1.4496081	14.652946	1.3816038	1.5604595	0.038391811	-0.0084813248
sim_inspiral:simulation_id:777	2.6449979	-0.37615228	0.6956118	175.51839	1.2953418	1.4909073	0.0022260851	-0.042902636
sim_inspiral:simulation_id:778	5.3385262	0.20258024	0.29014153	177.93562	1.2889387	1.3843335	-0.00046334375	-0.011332992
sim_inspiral:simulation_id:779	1.7634415	-1.3703548	1.8711242	81.028956	1.4288483	1.3266216	0.043134012	-0.027570084
sim_inspiral:simulation_id:780	0.10014361	-0.0014449319	2.5996733	109.4702	1.4284157	1.4004102	-0.018667219	-0.023776699
sim_inspiral:simulation_id:781	1.9098146	0.49127237	1.2224077	82.092431	1.3768816	1.2892399	0.019813752	0.041235452
sim_inspiral:simulation_id:782	6.1999614	0.088516561	2.4228515	164.27687	1.3884395	1.3892582	0.02095829	0.02003974
sim_inspiral:simulation_id:783	2.5037923	-1.1353454	2.8354522	116.33186	1.3442785	1.4263681	0.042910752	0.020971335
sim_inspiral:simulation_id:784	0.98729437	-0.478176	0.81095511	143.81874	1.40667	1.4710561	0.042772732	0.022323122
sim_inspiral:simulation_id:785	5.3647989	-0.28313893	2.9679296	146.93085	1.3042106	1.5472483	0.043473802	0.025329447
sim_inspiral:simulation_id:786	5.4792698	-0.77683165	0.48392363	70.359399	1.2461743	1.3139524	0.040625304	-0.02921067
sim_inspiral:simulation_id:787	1.4380494	0.070693923	2.9115311	54.388801	1.3501829	1.2551697	-0.0020270057	0.0075693588
sim_inspiral:simulation_id:788	3.929962	-1.0623566	2.7985204	211.12902	1.5830891	1.3421366	-1.4219027e-05	0.010888144
sim_inspiral:simulation_id:789	5.4719754	0.094351278	0.71242738	102.05856	1.3024939	1.126975	0.041926825	0.037226434
sim_inspiral:simulation_id:790	2.289883	0.47161568	0.40283044	111.46448	1.387232	1.3008372	0.022411508	-0.039537031
sim_inspiral:simulation_id:791	1.0724822	-1.1105443	2.9222091	103.57332	1.4407036	1.3343708	0.042819895	0.026274084
sim_inspiral:simulation_id:792	5.8084949	0.28300784	2.3241447	190.84775	1.3909251	1.4100149	-0.029485508	0.017757634
sim_inspiral:simulation_id:793	2.5707292	-0.5104625	2.8552563	137.85149	1.4182158	1.2173866	0.022600896	-0.001918302
sim_inspiral:simulation_id:794	0.12589319	0.86992038	1.3895885	25.111341	1.3849859	1.4584781	0.044978878	-0.018587694
sim_inspiral:simulation_id:795	4.1111717	-0.61125637	2.0114706	90.19507	1.3045836	1.2963479	-0.0058780853	0.024897104
sim_inspiral:simulation_id:796	1.9065964	0.72687598	2.2068216	78.471357	1.2802311	1.3562776	-0.0032642313	0.03201261
sim_inspiral:simulation_id:797	3.226991	-0.10785092	0.56381135	117.92283	1.3589535	1.4149358	0.010143974	-0.028023014
sim_inspiral:simulation_id:798	2.9197657	0.025130979	1.3398234	61.982728	1.52983	1.2569319	0.043510321	-0.038952694
sim_inspiral:simulation_id:799	4.8035666	0.2051207	2.1753265	86.133592	1.4622257	1.3910429	0.016260256	0.041840355
sim_inspiral:simulation_id:800	1.0984009	0.73310344	0.7781384	59.166903	1.3693664	1.313439	-0.0011447608	0.02973694
sim_inspiral:simulation_id:801	1.2287264	0.55871787	2.7280902	124.19105	1.306369	1.2860182	-0.0057416272	-0.0098496374
sim_inspiral:simulation_id:802	2.5804355	1.407104	2.657811	112.43643	1.305566	1.2895434	-0.035522567	0.019607009
sim_inspiral:simulation_id:803	5.9999786	0.68954379	2.4911013	173.01109	1.5607663	1.3607795	-0.0057140526	-0.020321658
sim_inspiral:simulation_id:804	1.7443179	-0.048580274	1.9139134	63.399618	1.3192461	1.4469105	-0.0012638175	0.023919457
sim_inspiral:simulation_id:805	2.9075286	-0.20444175	2.5752898	118.31338	1.4222241	1.4590138	0.036300975	-0.039961385
sim_inspiral:simulation_id:806	0.467646	-1.3368382	0.47734323	32.807025	1.4416432	1.2418993	-0.025701681	0.034830958
sim_inspiral:simulation_id:807	2.0917907	-0.021135537	2.259335	144.49748	1.3665144	1.4798277	0.032932137	0.016886888
sim_inspiral:simulation_id:808	0.62807136	-0.24080361	2.7498845	87.008223	1.4120752	1.3070762	-0.0035901654	-0.029778196
